GO:0009242	1.3763592632708007e-290	11	19	biological_process: colanic acid biosynthetic process	b2052,b2050,b2060,b2055,b2057,b2061,b2054,b2059,b2053,b2049,b2058
GO:0045228	2.55714059467948e-223	7	10	biological_process: slime layer polysaccharide biosynthetic process	b2050,b2055,b2057,b2054,b2059,b2056,b2058
GO:0004615	1.534995835169765e-90	2	2	molecular_function: phosphomannomutase activity	b2048,b3176
GO:0042351	1.534995835169765e-90	2	2	biological_process: 'de novo' GDP-L-fucose biosynthetic process	b2052,b2053
GO:0009103	2.7785772214159363e-73	11	72	biological_process: lipopolysaccharide biosynthetic process	b2048,b2050,b2060,b2051,b2055,b2057,b2054,b2059,b2056,b2049,b2058
GO:0000271	1.3140074891018947e-64	4	11	biological_process: polysaccharide biosynthetic process	b2060,b2049,b2061,b2062
GO:0071704	9.924256691812299e-60	2	3	biological_process: organic substance metabolic process	b2048,b3176
GO:0016413	9.924256691812299e-60	2	3	molecular_function: O-acetyltransferase activity	b2054,b2058
GO:0046377	9.924256691812299e-60	2	3	biological_process: colanic acid metabolic process	b2056,b2062
GO:0009298	9.924256691812299e-60	2	3	biological_process: GDP-mannose biosynthetic process	b2048,b2049
GO:0036065	2.313362538870154e-44	2	4	biological_process: fucosylation	b2050,b2055
GO:0070401	3.6487155937572865e-35	2	5	molecular_function: NADP+ binding	b2052,b2053
GO:0016868	4.7744880867415805e-29	2	6	molecular_function: intramolecular transferase activity, phosphotransferases	b2048,b3176
GO:0042558	8.124448355001333e-22	1	2	biological_process: pteridine-containing compound metabolic process	b3177
GO:0009226	8.124448355001333e-22	1	2	biological_process: nucleotide-sugar biosynthetic process	b2052
GO:0038083	8.124448355001333e-22	1	2	biological_process: peptidyl-tyrosine autophosphorylation	b2060
GO:0008417	8.124448355001333e-22	1	2	molecular_function: fucosyltransferase activity	b2055
GO:0009001	8.124448355001333e-22	1	2	molecular_function: serine O-acetyltransferase activity	b2058
GO:0015020	8.124448355001333e-22	1	2	molecular_function: glucuronosyltransferase activity	b2059
GO:0098796	3.02012084570894e-14	1	3	cellular_component: membrane protein complex	b3178
GO:0004725	3.02012084570894e-14	1	3	molecular_function: protein tyrosine phosphatase activity	b2061
GO:0035335	3.02012084570894e-14	1	3	biological_process: peptidyl-tyrosine dephosphorylation	b2061
GO:0015159	3.02012084570894e-14	1	3	molecular_function: polysaccharide transmembrane transporter activity	b2062
GO:0006535	1.6899508499541102e-10	1	4	biological_process: cysteine biosynthetic process from serine	b2058
GO:0009396	2.846749170035939e-08	1	5	biological_process: folic acid-containing compound biosynthetic process	b3177
GO:0004713	2.846749170035939e-08	1	5	molecular_function: protein tyrosine kinase activity	b2060
GO:0006048	8.391888381870576e-07	1	6	biological_process: UDP-N-acetylglucosamine biosynthetic process	b3176
GO:0015774	8.391888381870576e-07	1	6	biological_process: polysaccharide transport	b2062
GO:0044237	9.181841567396837e-06	1	7	biological_process: cellular metabolic process	b3177
GO:0046656	5.4236186044100116e-05	1	8	biological_process: folic acid biosynthetic process	b3177
GO:0030163	5.4236186044100116e-05	1	8	biological_process: protein catabolic process	b3178
GO:0006972	5.4236186044100116e-05	1	8	biological_process: hyperosmotic response	b2049
GO:0016407	0.00021283825243834968	1	9	molecular_function: acetyltransferase activity	b2058
GO:0004176	0.00021283825243834968	1	9	molecular_function: ATP-dependent peptidase activity	b3178
