GO:0006164	8.962931176431142e-17	12	19	biological_process: purine nucleotide biosynthetic process	PP_4822,PP_5336,PP_1240,PP_4823,PP_1457,PP_5335,PP_1664,PP_1037,PP_1665,PP_1031,PP_2000,PP_1032
GO:0006189	1.1696020194616389e-14	10	14	biological_process: 'de novo' IMP biosynthetic process	PP_4822,PP_5336,PP_1037,PP_1240,PP_1457,PP_4823,PP_1664,PP_1665,PP_2000,PP_5335
GO:0016874	1.711737668689662e-08	12	100	molecular_function: ligase activity	PP_1097,PP_1610,PP_5089,PP_2469,PP_1240,PP_4823,PP_5335,PP_1496,PP_1037,PP_1665,PP_2470,PP_1032
GO:0000166	2.079927193438692e-06	19	404	molecular_function: nucleotide binding	PP_5089,PP_2469,PP_1240,PP_1457,PP_1496,PP_2470,PP_1032,PP_1610,PP_1031,PP_1097,PP_1098,PP_0868,PP_4823,PP_0494,PP_0719,PP_5335,PP_0730,PP_1037,PP_1665
GO:0006541	5.150348558265539e-06	5	17	biological_process: glutamine metabolic process	PP_1610,PP_1037,PP_1842,PP_2000,PP_1032
GO:0006412	1.2872747274845007e-05	9	100	biological_process: translation	PP_1097,PP_5089,PP_2469,PP_0493,PP_0720,PP_0068,PP_1496,PP_2470,PP_0067
GO:0005524	1.4983795410830897e-05	17	377	molecular_function: ATP binding	PP_1097,PP_1610,PP_5089,PP_1098,PP_2469,PP_0868,PP_0730,PP_1240,PP_4823,PP_1457,PP_1496,PP_5335,PP_1037,PP_1665,PP_2470,PP_0719,PP_1032
GO:0004812	2.1861694098565143e-05	5	23	molecular_function: aminoacyl-tRNA ligase activity	PP_1097,PP_5089,PP_2469,PP_1496,PP_2470
GO:0005737	4.504594965178701e-05	16	368	cellular_component: cytoplasm	PP_1097,PP_1237,PP_5089,PP_2469,PP_0401,PP_0493,PP_1037,PP_0720,PP_1496,PP_0494,PP_1665,PP_0066,PP_1611,PP_2470,PP_0402,PP_4719
GO:0016742	9.665581592403358e-05	3	6	molecular_function: hydroxymethyl-, formyl- and related transferase activity	PP_0067,PP_1457,PP_1664
GO:0046872	0.00015386174527049032	17	453	molecular_function: metal ion binding	PP_1097,PP_1610,PP_1098,PP_2469,PP_0730,PP_4823,PP_1037,PP_1457,PP_1496,PP_0068,PP_1806,PP_2470,PP_1031,PP_1092,PP_0402,PP_2000,PP_5335
GO:0001514	0.0004022513400367122	2	2	biological_process: selenocysteine incorporation	PP_0493,PP_0494
GO:0009113	0.0004022513400367122	2	2	biological_process: purine nucleobase biosynthetic process	PP_4823,PP_2000
GO:0004644	0.0004022513400367122	2	2	molecular_function: phosphoribosylglycinamide formyltransferase activity	PP_1457,PP_1664
GO:0004826	0.0004022513400367122	2	2	molecular_function: phenylalanine-tRNA ligase activity	PP_2470,PP_2469
GO:0006432	0.0004022513400367122	2	2	biological_process: phenylalanyl-tRNA aminoacylation	PP_2470,PP_2469
GO:0000287	0.0006475965629825386	6	73	molecular_function: magnesium ion binding	PP_2469,PP_1457,PP_1496,PP_2470,PP_0402,PP_2000
GO:0000049	0.0007413093775500174	4	28	molecular_function: tRNA binding	PP_1097,PP_2470,PP_4820,PP_2469
GO:0006177	0.0008967169185292062	2	3	biological_process: GMP biosynthetic process	PP_1031,PP_1032
GO:0031167	0.0009152847269230679	3	13	biological_process: rRNA methylation	PP_0401,PP_4719,PP_0066
