GO:0015658	1.0722421280262963e-13	7	9	molecular_function: branched-chain amino acid transmembrane transporter activity	PP_4863,PP_0617,PP_1139,PP_1137,PP_2750,PP_2769,PP_4865
GO:0015803	1.0722421280262963e-13	7	9	biological_process: branched-chain amino acid transport	PP_4863,PP_0617,PP_1139,PP_1137,PP_2750,PP_2769,PP_4865
GO:0022857	2.6337110440868317e-07	10	219	molecular_function: transmembrane transporter activity	PP_0617,PP_1140,PP_1139,PP_4866,PP_4865,PP_2750,PP_0618,PP_2769,PP_2768,PP_2749
GO:0016887	2.6831934234363004e-05	6	102	molecular_function: ATPase activity	PP_4863,PP_1137,PP_4864,PP_0615,PP_0616,PP_1138
GO:0055085	7.217439030588901e-05	10	410	biological_process: transmembrane transport	PP_0617,PP_1140,PP_1139,PP_4866,PP_4865,PP_2750,PP_0618,PP_2769,PP_2768,PP_2749
GO:0005524	0.00022692753240947122	9	377	molecular_function: ATP binding	PP_4863,PP_2753,PP_2748,PP_1137,PP_4864,PP_0615,PP_0616,PP_1138,PP_2767
