GO:0046940	1.416327824533493e-83	2	4	biological_process: nucleoside monophosphate phosphorylation	PP_1593,PP_1771
GO:0046417	2.788708249534459e-41	1	2	biological_process: chorismate metabolic process	PP_1769
GO:0006220	2.788708249534459e-41	1	2	biological_process: pyrimidine nucleotide metabolic process	PP_1771
GO:0044210	2.788708249534459e-41	1	2	biological_process: 'de novo' CTP biosynthetic process	PP_1593
GO:0006564	2.788708249534459e-41	1	2	biological_process: L-serine biosynthetic process	PP_1768
GO:0004106	2.788708249534459e-41	1	2	molecular_function: chorismate mutase activity	PP_1769
GO:0016765	2.433796101881738e-29	2	11	molecular_function: transferase activity, transferring alkyl or aryl (other than methyl) groups	PP_1595,PP_1770
GO:0004659	3.889848138739411e-27	1	3	molecular_function: prenyltransferase activity	PP_1595
GO:0016024	3.889848138739411e-27	1	3	biological_process: CDP-diacylglycerol biosynthetic process	PP_1596
GO:0006415	4.2183514990525304e-20	1	4	biological_process: translational termination	PP_1594
GO:0009073	1.5139351765966014e-15	2	20	biological_process: aromatic amino acid family biosynthetic process	PP_1769,PP_1770
GO:0008615	4.0633644126519496e-13	1	6	biological_process: pyridoxine biosynthetic process	PP_1768
GO:0019288	4.0633644126519496e-13	1	6	biological_process: isopentenyl diphosphate biosynthetic process, methylerythritol 4-phosphate pathway	PP_1597
GO:0016114	3.8678956220794985e-11	1	7	biological_process: terpenoid biosynthetic process	PP_1597
GO:0006139	1.1576045759162543e-09	1	8	biological_process: nucleobase-containing compound metabolic process	PP_1771
GO:0004222	1.1576045759162543e-09	1	8	molecular_function: metalloendopeptidase activity	PP_1598
GO:0008299	1.605145294490235e-08	1	9	biological_process: isoprenoid biosynthetic process	PP_1597
GO:0006221	1.3007241839831455e-07	1	10	biological_process: pyrimidine nucleotide biosynthetic process	PP_1593
GO:0008652	6.980408608533149e-07	3	91	biological_process: cellular amino acid biosynthetic process	PP_1768,PP_1769,PP_1770
GO:0009423	2.927577293840272e-06	1	12	biological_process: chorismate biosynthetic process	PP_1770
GO:0005737	3.956506941213844e-06	6	368	cellular_component: cytoplasm	PP_1769,PP_1770,PP_1594,PP_1593,PP_1771,PP_1768
GO:0016740	0.001004491359466794	6	535	molecular_function: transferase activity	PP_1770,PP_1596,PP_1593,PP_1771,PP_1595,PP_1768
