GO:0006829	1.196326073998029e-153	2	2	biological_process: zinc ion transport	PP_0118,PP_0120
GO:0030001	8.952305227667948e-48	3	14	biological_process: metal ion transport	PP_3801,PP_3804,PP_0120
GO:0007155	1.4107929926219135e-42	2	7	biological_process: cell adhesion	PP_3801,PP_0120
GO:0042626	4.764384822961784e-12	2	23	molecular_function: ATPase activity, coupled to transmembrane movement of substances	PP_0117,PP_3803
GO:0005887	1.9281646917285658e-05	2	47	cellular_component: integral component of plasma membrane	PP_0117,PP_3803
GO:0043190	0.0001861382762237399	2	56	cellular_component: ATP-binding cassette (ABC) transporter complex	PP_0117,PP_3803
