GO:0007049	5.414732063064416e-203	12	35	biological_process: cell cycle	PP_1342,PP_1336,PP_1337,PP_1333,PP_1335,PP_1340,PP_1338,PP_1332,PP_1334,PP_1341,PP_1331,PP_1330
GO:0043093	1.8985371351896424e-198	6	9	biological_process: FtsZ-dependent cytokinesis	PP_1342,PP_1336,PP_1340,PP_1341,PP_1331,PP_1330
GO:0032153	4.317229291869836e-177	5	7	cellular_component: cell division site	PP_1342,PP_1336,PP_1340,PP_1341,PP_1330
GO:0051301	5.186975383707176e-177	12	40	biological_process: cell division	PP_1342,PP_1336,PP_1337,PP_1333,PP_1335,PP_1340,PP_1338,PP_1332,PP_1334,PP_1341,PP_1331,PP_1330
GO:0008360	2.482663669423432e-153	10	32	biological_process: regulation of cell shape	PP_1336,PP_1339,PP_1337,PP_1333,PP_1335,PP_1338,PP_3741,PP_1332,PP_1334,PP_1331
GO:0009252	4.738381624830507e-144	10	34	biological_process: peptidoglycan biosynthetic process	PP_1336,PP_1339,PP_1337,PP_1333,PP_1335,PP_1338,PP_3741,PP_1332,PP_1334,PP_1331
GO:0071555	8.387723093223187e-136	10	36	biological_process: cell wall organization	PP_1336,PP_1339,PP_1337,PP_1333,PP_1335,PP_1338,PP_3741,PP_1332,PP_1334,PP_1331
GO:0090529	8.828439751778447e-32	2	6	biological_process: cell septum assembly	PP_1342,PP_1340
GO:0008658	8.828439751778447e-32	2	6	molecular_function: penicillin binding	PP_3741,PP_1331
GO:0000917	5.008691223923806e-27	2	7	biological_process: division septum assembly	PP_1342,PP_1331
GO:0008955	5.008691223923806e-27	2	7	molecular_function: peptidoglycan glycosyltransferase activity	PP_1331,PP_1336
GO:0009002	5.008691223923806e-27	2	7	molecular_function: serine-type D-Ala-D-Ala carboxypeptidase activity	PP_3741,PP_1331
GO:0005887	4.7192016176138796e-24	5	47	cellular_component: integral component of plasma membrane	PP_1336,PP_1340,PP_3741,PP_1331,PP_1330
GO:0008963	7.417292182183757e-24	1	2	molecular_function: phospho-N-acetylmuramoyl-pentapeptide-transferase activity	PP_1334
GO:0008716	7.417292182183757e-24	1	2	molecular_function: D-alanine-D-alanine ligase activity	PP_1339
GO:0009898	7.417292182183757e-24	1	2	cellular_component: cytoplasmic side of plasma membrane	PP_1341
GO:0004180	1.0405542243821367e-20	2	9	molecular_function: carboxypeptidase activity	PP_3741,PP_1331
GO:0070475	1.3568911019333295e-15	1	3	biological_process: rRNA base methylation	PP_1329
GO:0016758	1.3568911019333295e-15	1	3	molecular_function: transferase activity, transferring hexosyl groups	PP_1337
GO:0016881	1.3568911019333295e-15	1	3	molecular_function: acid-amino acid ligase activity	PP_1332
GO:0009058	1.0270539070908563e-11	4	58	biological_process: biosynthetic process	PP_1333,PP_1332,PP_1335,PP_1338
GO:0016874	3.6986599876402937e-10	5	100	molecular_function: ligase activity	PP_1339,PP_1333,PP_1335,PP_1338,PP_1332
GO:0016757	1.4605098018455161e-09	3	40	molecular_function: transferase activity, transferring glycosyl groups	PP_3741,PP_1337,PP_1336
GO:0009295	4.577265972339814e-09	1	5	cellular_component: nucleoid	PP_1328
GO:0005737	8.75812760197024e-06	8	368	cellular_component: cytoplasm	PP_1342,PP_1329,PP_1339,PP_1333,PP_1335,PP_1338,PP_1328,PP_1332
