GO:0009401	1.117848643997009e-12	8	57	biological_process: phosphoenolpyruvate-dependent sugar phosphotransferase system	b4240,b2416,b2415,b2715,b1621,b2429,b2417,b1101
GO:0008643	1.3133498910347696e-10	8	104	biological_process: carbohydrate transport	b4240,b2416,b2415,b2715,b1621,b2429,b2417,b1101
GO:0090563	2.9635522180978094e-09	5	20	molecular_function: protein-phosphocysteine-sugar phosphotransferase activity	b4240,b2715,b1621,b2429,b1101
GO:0016301	5.2148257663628755e-09	8	166	molecular_function: kinase activity	b4240,b2296,b2416,b2715,b1621,b2429,b2417,b1101
GO:0016310	6.000866851375396e-09	8	169	biological_process: phosphorylation	b4240,b2296,b2416,b2715,b1621,b2429,b2417,b1101
GO:0008982	2.2163232852333063e-08	5	30	molecular_function: protein-N(PI)-phosphohistidine-sugar phosphotransferase activity	b4240,b2715,b1621,b2429,b1101
GO:0016740	5.539158430144222e-06	9	576	molecular_function: transferase activity	b4240,b2296,b2416,b2715,b2297,b1621,b2429,b2417,b1101
GO:0006085	1.7888061951676125e-05	2	2	biological_process: acetyl-CoA biosynthetic process	b2297,b2296
GO:0090564	1.7888061951676125e-05	2	2	molecular_function: protein-phosphocysteine-glucose phosphotransferase system transporter activity	b1621,b1101
GO:0019413	1.7888061951676125e-05	2	2	biological_process: acetate biosynthetic process	b2297,b2296
GO:0006083	4.017823766398276e-05	2	3	biological_process: acetate metabolic process	b2297,b2296
GO:0015771	4.017823766398276e-05	2	3	biological_process: trehalose transport	b2715,b4240
GO:0090589	4.017823766398276e-05	2	3	molecular_function: protein-phosphocysteine-trehalose phosphotransferase system transporter activity	b2715,b4240
GO:1904659	0.00015987707768027267	2	6	biological_process: glucose transmembrane transport	b1621,b1101
GO:0034219	0.0002683543955575768	3	42	biological_process: carbohydrate transmembrane transport	b2715,b4240,b2429
