GO:0042128	2.939294526468759e-20	14	20	biological_process: nitrate assimilation	b1466,b3365,b3367,b4070,b1227,b1223,b1467,b1224,b1226,b1225,b3366,b2206,b1465,b1468
GO:0017004	2.739499993284886e-13	9	13	biological_process: cytochrome complex assembly	b2201,b4074,b2198,b2194,b2199,b2200,b2196,b2195,b2197
GO:0055114	6.538679798651833e-13	28	448	biological_process: oxidation-reduction process	b2202,b4072,b4070,b1225,b2206,b1465,b2436,b1468,b2710,b2540,b2538,b2205,b1467,b2195,b2203,b3867,b2711,b4071,b1227,b2541,b3368,b1224,b3366,b2204,b2539,b3365,b2194,b2542
GO:0008940	1.1090249738118812e-11	7	7	molecular_function: nitrate reductase activity	b1227,b1467,b1224,b1225,b2206,b1465,b1468
GO:0019645	4.856528510467044e-11	8	15	biological_process: anaerobic electron transport chain	b4071,b4072,b4070,b1227,b1467,b1465,b4073,b1468
GO:0015886	6.304254705022729e-11	7	9	biological_process: heme transport	b2201,b4074,b2198,b2199,b2200,b2196,b2197
GO:0009061	8.553279712650761e-11	11	49	biological_process: anaerobic respiration	b2202,b3365,b1227,b1467,b1224,b1225,b3366,b2206,b1465,b2203,b1468
GO:0020037	1.8826420591856801e-10	10	39	molecular_function: heme binding	b2202,b4071,b3365,b4070,b4074,b1227,b2199,b2196,b1465,b2197
GO:0009325	3.5517011091475577e-10	6	6	cellular_component: nitrate reductase complex	b1227,b1467,b1224,b1225,b1465,b1468
GO:0016491	7.822888185575643e-10	22	356	molecular_function: oxidoreductase activity	b4072,b4070,b1225,b2206,b1465,b2436,b1468,b2710,b2538,b1467,b2195,b3867,b2711,b4071,b1227,b2541,b3368,b1224,b3366,b2539,b3365,b2542
GO:0006779	2.1116018115282162e-09	7	15	biological_process: porphyrin-containing compound biosynthetic process	b3804,b3368,b2436,b3997,b3805,b3802,b3867
GO:0051536	8.994569657482484e-08	13	146	molecular_function: iron-sulfur cluster binding	b2540,b2538,b3365,b4072,b2205,b2208,b3867,b1467,b1224,b1225,b2206,b2204,b1468
GO:0006782	2.045576429430242e-07	5	9	biological_process: protoporphyrinogen IX biosynthetic process	b3867,b3804,b3997,b3805,b2436
GO:0042126	3.590038812822895e-07	4	4	biological_process: nitrate metabolic process	b1467,b1224,b1225,b1468
GO:0018378	3.590038812822895e-07	4	4	biological_process: cytochrome c-heme linkage via heme-L-cysteine	b4074,b2194,b4075,b4076
GO:0008695	3.590038812822895e-07	4	4	molecular_function: 3-phenylpropionate dioxygenase activity	b2540,b2539,b2538,b2542
GO:0046872	4.253118384398612e-07	26	692	molecular_function: metal ion binding	b2202,b3996,b4072,b4070,b1225,b2206,b1465,b4075,b2436,b1468,b2710,b2540,b2538,b2205,b2208,b1467,b2197,b2203,b3867,b4071,b1227,b1224,b2204,b3365,b2194,b3998
GO:0019380	5.461678568352633e-07	5	11	biological_process: 3-phenylpropionate catabolic process	b2540,b2539,b2538,b2541,b2542
GO:0051539	6.058046494233446e-07	11	117	molecular_function: 4 iron, 4 sulfur cluster binding	b3365,b2205,b4072,b2208,b3867,b1467,b1224,b1225,b2206,b2204,b1468
GO:0019439	1.2326526136272599e-06	5	13	biological_process: aromatic compound catabolic process	b2540,b2539,b2538,b2541,b2542
GO:0015232	1.779977784113882e-06	4	6	molecular_function: heme transporter activity	b4074,b2200,b2196,b2199
GO:0009055	2.295709112964783e-06	9	83	molecular_function: electron transfer activity	b2202,b2710,b4071,b1227,b1467,b1224,b1225,b2206,b1465
GO:0044799	1.1524005485395338e-05	3	3	cellular_component: NarGHI complex	b1227,b1225,b1224
GO:0042279	1.1524005485395338e-05	3	3	molecular_function: nitrite reductase (cytochrome, ammonia-forming) activity	b4070,b4071,b4072
GO:0031235	5.230008861955557e-05	3	5	cellular_component: intrinsic component of the cytoplasmic side of the plasma membrane	b2198,b1224,b1225
GO:0031237	0.00014068485215376785	3	7	cellular_component: intrinsic component of periplasmic side of plasma membrane	b2197,b2194,b2195
GO:0006783	0.0002079249655453123	3	8	biological_process: heme biosynthetic process	b3805,b2436,b3997
GO:0051131	0.000382229840385541	2	2	biological_process: chaperone-mediated protein complex assembly	b1226,b1466
GO:0018063	0.000382229840385541	2	2	biological_process: cytochrome c-heme linkage	b2197,b2196
GO:0016966	0.000382229840385541	2	2	molecular_function: nitric oxide reductase activity	b4070,b2710
GO:0009344	0.000382229840385541	2	2	cellular_component: nitrite reductase complex [NAD(P)H]	b3365,b3366
GO:0008942	0.000382229840385541	2	2	molecular_function: nitrite reductase [NAD(P)H] activity	b3365,b3366
GO:0006780	0.000382229840385541	2	2	biological_process: uroporphyrinogen III biosynthetic process	b3804,b3997
