GO:0008706	8.398895383350104e-10	4	4	molecular_function: 6-phospho-beta-glucosidase activity	b2901,b3721,b1734,b2716
GO:0103047	8.398895383350104e-10	4	4	molecular_function: methyl beta-D-glucoside 6-phosphate glucohydrolase activity	b2901,b3721,b1734,b2716
GO:1902815	1.3610854201689897e-07	3	3	biological_process: N,N'-diacetylchitobiose import	b1737,b1736,b1738
GO:0008422	3.219971460081336e-07	3	4	molecular_function: beta-glucosidase activity	b2901,b3721,b2716
GO:0004553	1.2319274151997675e-06	4	25	molecular_function: hydrolase activity, hydrolyzing O-glycosyl compounds	b2901,b3721,b1734,b2716
GO:0016052	1.715604055744524e-06	3	7	biological_process: carbohydrate catabolic process	b2901,b3721,b2716
GO:0005975	5.6339356080634055e-06	6	154	biological_process: carbohydrate metabolic process	b1733,b2901,b3721,b2716,b4090,b1734
GO:0016798	7.848369927538085e-06	4	40	molecular_function: hydrolase activity, acting on glycosyl bonds	b2901,b3721,b1734,b2716
GO:0034219	9.503786407698932e-06	4	42	biological_process: carbohydrate transmembrane transport	b3722,b1737,b1736,b1738
GO:0090566	2.113309004857981e-05	2	2	molecular_function: protein-phosphocysteine-N,N'-diacetylchitobiose phosphotransferase system transporter activity	b1736,b1738
GO:0009401	3.133896371727261e-05	4	57	biological_process: phosphoenolpyruvate-dependent sugar phosphotransferase system	b3722,b1737,b1736,b1738
GO:0008982	0.0001290993541324777	3	30	molecular_function: protein-N(PI)-phosphohistidine-sugar phosphotransferase activity	b3722,b1737,b1738
GO:0061720	0.0001313263924208377	2	5	biological_process: 6-sulfoquinovose(1-) catabolic process to glycerone phosphate and 3-sulfolactaldehyde	b3881,b3882
GO:1902777	0.0001313263924208377	2	5	biological_process: 6-sulfoquinovose(1-) catabolic process	b3881,b3882
GO:0008643	0.00031766590418369717	4	104	biological_process: carbohydrate transport	b3722,b1737,b1736,b1738
