GO:0006829	1.8070245766556634e-07	3	8	biological_process: zinc ion transport	b1859,b1858,b1857
GO:0034224	4.073957320987509e-06	2	2	biological_process: cellular response to zinc ion starvation	b1973,b0296
GO:0010043	2.540915298645503e-05	2	5	biological_process: response to zinc ion	b1859,b1858
