GO:0006526	3.520548773124842e-14	9	12	biological_process: arginine biosynthetic process	b2818,b3172,b4254,b3359,b0273,b3960,b3958,b3957,b3959
GO:0042908	6.464052691342069e-14	10	20	biological_process: xenobiotic transport	b3266,b2075,b2076,b3513,b0462,b3514,b3265,b0463,b2470,b2074
GO:0015721	2.5926559617704934e-12	8	12	biological_process: bile acid and bile salt transport	b2075,b3035,b2076,b3513,b3514,b2074,b0463,b2470
GO:0015125	1.0049507102975107e-11	7	8	molecular_function: bile acid transmembrane transporter activity	b2075,b3035,b2076,b3513,b3514,b2074,b2470
GO:0015562	4.0199712377054174e-11	8	17	molecular_function: efflux transmembrane transporter activity	b3266,b0878,b3035,b0462,b0879,b3514,b2074,b2470
GO:0022857	2.3456974901716566e-09	16	213	molecular_function: transmembrane transporter activity	b3266,b0878,b2075,b2077,b0862,b2076,b3513,b0462,b0861,b0879,b3514,b3265,b0463,b2470,b1117,b2074
GO:1990281	5.520968901440708e-09	5	5	cellular_component: efflux pump complex	b0878,b3035,b0462,b2074,b0463
GO:0044874	5.520968901440708e-09	5	5	biological_process: lipoprotein localization to outer membrane	b0891,b1209,b1118,b1116,b1117
GO:0042450	5.632841691628248e-08	5	8	biological_process: arginine biosynthetic process via ornithine	b4254,b3359,b3960,b0273,b3959
GO:0097638	2.0366225160768785e-07	4	4	biological_process: L-arginine import across plasma membrane	b0864,b0860,b0862,b0861
GO:0042953	2.0366225160768785e-07	4	4	biological_process: lipoprotein transport	b1116,b1118,b1117,b0891
GO:0042910	2.387948859368742e-07	6	21	molecular_function: xenobiotic transmembrane transporter activity	b3513,b0462,b3514,b3265,b0463,b2074
GO:0055085	2.8321339689053303e-06	16	357	biological_process: transmembrane transport	b3266,b0878,b2075,b2077,b3035,b0862,b2076,b3513,b0462,b0861,b3514,b3265,b0463,b2470,b1117,b2074
GO:0008652	3.0934320313577843e-06	9	100	biological_process: cellular amino acid biosynthetic process	b2818,b3172,b4254,b3359,b0273,b3960,b3958,b3957,b3959
GO:0046677	3.3527837919441432e-06	9	101	biological_process: response to antibiotic	b0878,b3191,b3035,b3513,b0879,b3514,b3265,b0463,b2470
GO:1990196	7.564487784263004e-06	3	3	cellular_component: MacAB-TolC complex	b0878,b3035,b0879
GO:0030288	1.7697055325936696e-05	11	194	cellular_component: outer membrane-bounded periplasmic space	b3035,b0891,b3192,b1743,b0860,b0462,b1209,b0863,b1116,b3193,b0463
GO:0015914	1.7777204299461225e-05	3	4	biological_process: phospholipid transport	b3192,b3194,b3193
GO:0098797	5.8976210971228645e-05	3	6	cellular_component: plasma membrane protein complex	b1116,b1118,b1117
GO:0071705	5.914385234569283e-05	4	17	biological_process: nitrogen compound transport	b0863,b0860,b0862,b0861
GO:0009636	9.064844258890382e-05	4	19	biological_process: response to toxic substance	b3514,b2470,b3513,b3035
GO:0016020	0.00027278531586974567	28	1299	cellular_component: membrane	b2077,b2076,b0860,b2078,b0463,b2470,b1117,b3266,b0878,b1846,b3035,b1118,b0462,b1209,b0861,b0879,b3193,b3265,b0862,b0863,b3513,b3514,b2074,b2075,b3195,b1116,b0864,b3194
GO:0014070	0.00028944468301756625	2	2	biological_process: response to organic cyclic compound	b1743,b3035
GO:0006591	0.00028944468301756625	2	2	biological_process: ornithine metabolic process	b0273,b4254
GO:0005548	0.00028944468301756625	2	2	molecular_function: phospholipid transporter activity	b3194,b3193
GO:0031226	0.0005649191505019555	3	13	cellular_component: intrinsic component of plasma membrane	b3265,b0463,b3513
