GO:0009432	2.548090451633307e-09	5	30	biological_process: SOS response	b2698,b2616,b0958,b1848,b2699
GO:0006740	4.896829914711671e-06	2	2	biological_process: NADPH regeneration	b1602,b1603
GO:0008750	4.896829914711671e-06	2	2	molecular_function: NAD(P)+ transhydrogenase (AB-specific) activity	b1602,b1603
GO:0008746	1.4672604114382335e-05	2	3	molecular_function: NAD(P)+ transhydrogenase activity	b1602,b1603
GO:0006281	2.0444873657808366e-05	4	80	biological_process: DNA repair	b2699,b1848,b2698,b2616
