GO:0006096	2.504590431046075e-18	13	19	biological_process: glycolytic process	b4395,b2925,b1723,b3919,b1779,b1676,b4025,b2779,b1854,b3612,b0755,b2926,b3916
GO:0006094	5.702466442783713e-09	7	14	biological_process: gluconeogenesis	b3403,b2925,b3919,b4025,b4232,b0755,b2926
GO:0008152	1.8124528116119965e-07	14	119	biological_process: metabolic process	b3403,b3431,b1676,b4232,b3417,b3956,b3080,b1854,b3430,b3916,b3428,b1767,b4167,b0403
GO:0005980	2.144245232835578e-07	4	4	biological_process: glycogen catabolic process	b3428,b3417,b3416,b3431
GO:0005977	2.144245232835578e-07	4	4	biological_process: glycogen metabolic process	b3428,b3432,b3430,b3431
GO:0005737	5.178539843290104e-07	39	848	cellular_component: cytoplasm	b4395,b3417,b0687,b0688,b0755,b4168,b0779,b4166,b1807,b3919,b1779,b4058,b2779,b1854,b3612,b1493,b0143,b3064,b3916,b3813,b3403,b4025,b4232,b2518,b3416,b2926,b1914,b3432,b1767,b2927,b0403,b1913,b4173,b1676,b3164,b1084,b3428,b3780,b1780
GO:0003824	2.816025541124409e-06	23	375	molecular_function: catalytic activity	b4395,b2925,b3417,b0755,b3517,b3431,b3919,b3956,b3612,b1854,b1493,b3916,b4167,b3403,b4232,b3430,b3432,b1767,b0403,b3614,b1676,b3428,b1780
GO:0006289	3.109827311477473e-06	4	6	biological_process: nucleotide-excision repair	b4058,b0779,b1913,b3813
GO:0005975	4.361574187234341e-06	14	154	biological_process: carbohydrate metabolic process	b3431,b2925,b1723,b3614,b4232,b3417,b3416,b3080,b0688,b3430,b3428,b3432,b0403,b1780
GO:0004619	1.0144133002765985e-05	3	3	molecular_function: phosphoglycerate mutase activity	b0755,b4395,b3612
GO:0009381	1.0144133002765985e-05	3	3	molecular_function: excinuclease ABC activity	b4058,b0779,b1913
GO:0005978	1.0144133002765985e-05	3	3	biological_process: glycogen biosynthetic process	b3432,b3430,b3429
GO:0005829	1.2224379547498474e-05	41	1032	cellular_component: cytosol	b2925,b3417,b2733,b0687,b0688,b0755,b3517,b1807,b3919,b1723,b1779,b1867,b4058,b3956,b4172,b2779,b1854,b3612,b1493,b0143,b3064,b3429,b3407,b3916,b3813,b3403,b4025,b4232,b2518,b3416,b2926,b3432,b1767,b2927,b4173,b1676,b0144,b3164,b4174,b3780,b1780
GO:0042802	2.7373935351216348e-05	23	429	molecular_function: identical protein binding	b2925,b3510,b2733,b0687,b4170,b4168,b0779,b1807,b3919,b1723,b4058,b3506,b2779,b1854,b3064,b3916,b4025,b4232,b3430,b1767,b1676,b3164,b1084
GO:0000287	3.4353376195408193e-05	14	184	molecular_function: magnesium ion binding	b3403,b1723,b1676,b4232,b3164,b3956,b2779,b1854,b0688,b3064,b3430,b1084,b0142,b3916
GO:0009380	3.993325844119656e-05	3	4	cellular_component: excinuclease repair complex	b4058,b0779,b1913
GO:0002949	3.993325844119656e-05	3	4	biological_process: tRNA threonylcarbamoyladenosine modification	b4168,b1807,b3064
GO:0006298	4.0705154653944454e-05	4	10	biological_process: mismatch repair	b1960,b4170,b2733,b3813
GO:0005524	4.2840765412559685e-05	23	441	molecular_function: ATP binding	b2786,b2733,b4170,b0755,b4168,b0779,b1723,b4058,b1854,b0143,b0142,b3916,b4167,b3813,b3403,b2518,b3430,b2926,b4173,b1676,b0144,b4171,b3780
GO:0000166	6.500376131459606e-05	25	517	molecular_function: nucleotide binding	b2786,b2733,b4170,b4168,b0779,b1723,b1779,b4058,b1854,b0143,b0142,b3916,b4167,b3813,b3403,b4232,b2518,b3430,b2926,b4173,b1676,b0144,b4171,b2628,b3780
GO:0051454	9.825182821057761e-05	3	5	biological_process: intracellular pH elevation	b1492,b3517,b1493
GO:0009268	0.00019339382910919803	3	6	biological_process: response to pH	b3511,b3509,b0486
GO:0016868	0.00019339382910919803	3	6	molecular_function: intramolecular transferase activity, phosphotransferases	b0688,b4395,b0755
GO:0006974	0.0002471974089331919	15	248	biological_process: cellular response to DNA damage stimulus	b3431,b3515,b1723,b1960,b4058,b2733,b3516,b3080,b4170,b3429,b3432,b0779,b1913,b3813,b1780
GO:0030983	0.00047417636340758043	2	2	molecular_function: mismatched DNA binding	b4170,b2733
GO:0006536	0.00047417636340758043	2	2	biological_process: glutamate metabolic process	b3517,b1493
GO:0061621	0.00047417636340758043	2	2	biological_process: canonical glycolysis	b3916,b0755
GO:0006538	0.00047417636340758043	2	2	biological_process: glutamate catabolic process	b3517,b1493
GO:0004351	0.00047417636340758043	2	2	molecular_function: glutamate decarboxylase activity	b3517,b1493
GO:1902912	0.00047417636340758043	2	2	cellular_component: pyruvate kinase complex	b1676,b1854
GO:0004743	0.00047417636340758043	2	2	molecular_function: pyruvate kinase activity	b1676,b1854
GO:0003872	0.00047417636340758043	2	2	molecular_function: 6-phosphofructokinase activity	b3916,b1723
GO:0004365	0.00047417636340758043	2	2	molecular_function: glyceraldehyde-3-phosphate dehydrogenase (NAD+) (phosphorylating) activity	b2927,b1779
GO:0102499	0.00047417636340758043	2	2	molecular_function: SHG alpha-glucan phosphorylase activity	b3428,b3417
GO:0008184	0.00047417636340758043	2	2	molecular_function: glycogen phosphorylase activity	b3428,b3417
GO:0102250	0.00047417636340758043	2	2	molecular_function: linear malto-oligosaccharide phosphorylase activity	b3428,b3417
GO:0009314	0.0006779949082839658	6	50	biological_process: response to radiation	b3613,b4058,b0687,b0779,b1913,b3813
