GO:0009231	1.4733013243164325e-12	6	7	biological_process: riboflavin biosynthetic process	PP_0522,PP_0530,PP_0516,PP_3813,PP_0517,PP_0514
GO:0008686	5.32787954030038e-07	3	3	molecular_function: 3,4-dihydroxy-2-butanone-4-phosphate synthase activity	PP_0530,PP_3813,PP_0516
GO:0030145	6.142601237966431e-05	3	10	molecular_function: manganese ion binding	PP_3813,PP_0530,PP_0516
GO:0000175	6.780156382700272e-05	2	2	molecular_function: 3'-5'-exoribonuclease activity	PP_4902,PP_5294
