GO:0016705	1.2618716585993608e-06	4	16	molecular_function: oxidoreductase activity, acting on paired donors, with incorporation or reduction of molecular oxygen	PP_3219,PP_2765,PP_0238,PP_3529
GO:0042626	5.984116914586753e-06	4	23	molecular_function: ATPase activity, coupled to transmembrane movement of substances	PP_3229,PP_3228,PP_0237,PP_3528
GO:0004497	5.984116914586753e-06	4	23	molecular_function: monooxygenase activity	PP_3219,PP_2765,PP_3529,PP_0238
GO:0042597	1.6072619625921394e-05	5	61	cellular_component: periplasmic space	PP_3228,PP_0237,PP_3229,PP_3528,PP_0233
GO:0015734	2.966318417435673e-05	2	2	biological_process: taurine transport	PP_0232,PP_0233
GO:0052873	2.966318417435673e-05	2	2	molecular_function: FMN reductase (NADPH) activity	PP_2764,PP_0236
