GO:0006526	1.1448191170291258e-11	7	14	biological_process: arginine biosynthetic process	PP_0432,PP_5185,PP_1346,PP_1088,PP_3633,PP_5289,PP_0184
GO:0015562	1.0797550086060997e-09	7	24	molecular_function: efflux transmembrane transporter activity	PP_4211,PP_1798,PP_3456,PP_4923,PP_1384,PP_1385,PP_4210
GO:0042953	3.0153934733365392e-06	3	4	biological_process: lipoprotein transport	PP_2154,PP_2156,PP_2155
GO:0008652	1.6093627137548442e-05	7	91	biological_process: cellular amino acid biosynthetic process	PP_0432,PP_5185,PP_1346,PP_1088,PP_3633,PP_5289,PP_0184
GO:0042450	8.552242710021713e-05	2	2	biological_process: arginine biosynthetic process via ornithine	PP_5289,PP_0184
GO:0003942	8.552242710021713e-05	2	2	molecular_function: N-acetyl-gamma-glutamyl-phosphate reductase activity	PP_0432,PP_3633
GO:0004042	8.552242710021713e-05	2	2	molecular_function: acetyl-CoA:L-glutamate N-acetyltransferase activity	PP_1346,PP_5185
GO:0103045	8.552242710021713e-05	2	2	molecular_function: methione N-acyltransferase activity	PP_1346,PP_5185
GO:0022857	0.0001344664852359773	9	219	molecular_function: transmembrane transporter activity	PP_0906,PP_4211,PP_3456,PP_3455,PP_1384,PP_0907,PP_4209,PP_1385,PP_1386
