GO:0006974	2.4562853351979756e-08	6	42	biological_process: cellular response to DNA damage stimulus	PP_4098,PP_0483,PP_4896,PP_1974,PP_1626,PP_0485
GO:0009380	9.462454682104117e-08	3	3	cellular_component: excinuclease repair complex	PP_0483,PP_4098,PP_1974
GO:0009381	9.462454682104117e-08	3	3	molecular_function: excinuclease ABC activity	PP_0483,PP_4098,PP_1974
GO:0006281	1.1686623467144227e-07	6	54	biological_process: DNA repair	PP_4098,PP_0483,PP_4896,PP_1974,PP_1626,PP_0485
GO:0006289	3.773465700819242e-07	3	4	biological_process: nucleotide-excision repair	PP_0483,PP_4098,PP_1974
GO:0009432	1.5237040710375324e-05	3	11	biological_process: SOS response	PP_1974,PP_4098,PP_0483
GO:0030983	2.195846101214564e-05	2	2	molecular_function: mismatched DNA binding	PP_4896,PP_1626
GO:0006298	2.195846101214564e-05	2	2	biological_process: mismatch repair	PP_4896,PP_1626
