GO:0006313	1.478122504104189e-23	12	48	biological_process: transposition, DNA-mediated	b3445,b1894,b0022,b0021,b0264,b0275,b4516,b0265,b3444,b0988,b1893,b0274
GO:0032196	1.1622882533903894e-22	12	57	biological_process: transposition	b3445,b1894,b0022,b0021,b0264,b0275,b4516,b0265,b3444,b0988,b1893,b0274
GO:0006310	2.225465739447219e-19	12	107	biological_process: DNA recombination	b3445,b1894,b0022,b0021,b0264,b0275,b4516,b0265,b3444,b0988,b1893,b0274
GO:0004803	9.697608347281728e-10	6	39	molecular_function: transposase activity	b3445,b0021,b0264,b0988,b1893,b0274
GO:0032196	1.1622882533903894e-22	12	57	biological_process: transposition	b1996,b4273,b2861,b1402,b3044,b3045,b2860,b4272,b0361,b1403,b1997,b0360
GO:0006310	2.225465739447219e-19	12	107	biological_process: DNA recombination	b1996,b4273,b2861,b1402,b3044,b3045,b2860,b4272,b0361,b1403,b1997,b0360
GO:0003677	2.1907645182875454e-11	12	496	molecular_function: DNA binding	b1996,b4273,b2861,b1402,b3044,b3045,b2860,b4272,b0361,b1403,b1997,b0360
GO:0015074	2.472516625562888e-10	6	31	biological_process: DNA integration	b1996,b4273,b1402,b3045,b2860,b0361
GO:0004803	9.697608347281728e-10	6	39	molecular_function: transposase activity	b2861,b3044,b4272,b1403,b1997,b0360
GO:0006313	3.329943165125711e-09	6	48	biological_process: transposition, DNA-mediated	b2861,b3044,b4272,b1403,b1997,b0360
GO:0003676	1.2797338625228194e-07	6	89	molecular_function: nucleic acid binding	b1996,b4273,b1402,b3045,b2860,b0361
GO:0009231	2.1324150636176342e-08	4	9	biological_process: riboflavin biosynthetic process	b1277,b0415,b0414,b3041
GO:0008962	1.3610854201689897e-07	3	3	molecular_function: phosphatidylglycerophosphatase activity	b2560,b1278,b0418
GO:0009395	1.3610854201689897e-07	3	3	biological_process: phospholipid catabolic process	b2560,b1278,b0418
GO:0006655	3.219971460081336e-07	3	4	biological_process: phosphatidylglycerol biosynthetic process	b2560,b1278,b0418
GO:0046474	6.276715237451033e-07	3	5	biological_process: glycerophospholipid biosynthetic process	b2560,b1278,b0418
GO:0016042	6.605432712301357e-06	3	11	biological_process: lipid catabolic process	b2560,b1278,b0418
GO:0046872	7.153671392978863e-05	9	692	molecular_function: metal ion binding	b0413,b1277,b0417,b0418,b0414,b4161,b2560,b4162,b3041
GO:0006629	8.620359134685432e-05	4	74	biological_process: lipid metabolic process	b2560,b1278,b0418,b4160
GO:0006260	6.127835795650685e-25	22	47	biological_process: DNA replication	b3863,b2675,b2234,b4259,b2496,b0924,b0215,b0184,b2235,b3702,b3935,b0923,b3066,b1099,b2676,b4052,b0640,b0922,b4372,b3700,b3701,b0470
GO:0003887	5.877803298302858e-17	12	14	molecular_function: DNA-directed DNA polymerase activity	b4259,b1183,b1099,b0640,b1184,b0215,b0184,b0060,b3863,b4372,b3701,b0470
GO:0071897	8.338850469820845e-13	9	11	biological_process: DNA biosynthetic process	b4259,b1099,b0640,b0215,b0184,b3863,b4372,b0060,b0470
GO:0016779	4.214393343795483e-12	13	47	molecular_function: nucleotidyltransferase activity	b3053,b3052,b4259,b3066,b1099,b0470,b0640,b0215,b0184,b3863,b4372,b3701,b0060
GO:0005737	8.962830655501429e-11	41	848	cellular_component: cytoplasm	b0948,b2580,b2315,b0954,b3863,b3255,b0214,b1098,b2675,b0183,b2563,b4373,b0181,b2564,b2949,b2231,b4258,b0185,b0924,b2316,b0180,b0184,b2235,b3702,b2566,b0182,b2567,b3640,b3256,b0923,b2236,b3066,b0471,b3699,b2676,b0922,b4374,b2827,b3700,b3701,b0949
GO:0006261	2.735220941861314e-10	8	14	biological_process: DNA-dependent DNA replication	b2231,b3935,b3699,b1099,b0640,b3863,b0060,b0470
GO:0006633	7.383232683108611e-08	7	19	biological_process: fatty acid biosynthetic process	b3256,b0185,b0954,b2316,b0180,b2563,b3255
GO:0005515	1.1977720740781173e-07	41	1066	molecular_function: protein binding	b0948,b2580,b1183,b1100,b3255,b0214,b2234,b4259,b2496,b1097,b3639,b2553,b2231,b0185,b0924,b2316,b1184,b0215,b0184,b2235,b3702,b2566,b0182,b2567,b3256,b0923,b3066,b3935,b1099,b0471,b3699,b2676,b0640,b4052,b0922,b4372,b3700,b3701,b0470,b2674,b0949
GO:0008408	1.7992398443447847e-07	6	13	molecular_function: 3'-5' exonuclease activity	b1099,b0215,b0184,b3863,b4372,b3701
GO:0090305	9.992579442225236e-07	10	73	biological_process: nucleic acid phosphodiester bond hydrolysis	b2567,b1099,b0215,b0184,b3863,b2949,b4372,b0183,b3701,b0060
GO:0009360	1.087476288053692e-06	4	4	cellular_component: DNA polymerase III complex	b3701,b0470,b0640,b1099
GO:0003989	1.087476288053692e-06	4	4	molecular_function: acetyl-CoA carboxylase activity	b2316,b3255,b0185,b3256
GO:0005971	1.087476288053692e-06	4	4	cellular_component: ribonucleoside-diphosphate reductase complex	b2235,b2234,b2675,b2676
GO:0000166	3.057669482875098e-06	25	517	molecular_function: nucleotide binding	b3053,b2315,b1098,b2675,b2234,b2496,b2553,b2231,b4258,b0185,b0924,b2316,b3702,b0060,b2566,b2567,b3256,b3052,b3935,b3699,b4052,b4374,b3700,b0470,b0949
GO:0009314	4.276808850006581e-06	8	50	biological_process: response to radiation	b0949,b4259,b0471,b2565,b4372,b2827,b3700,b0472
GO:0009263	5.353865849667686e-06	4	6	biological_process: deoxyribonucleotide biosynthetic process	b2235,b2234,b2675,b2676
GO:0004748	5.353865849667686e-06	4	6	molecular_function: ribonucleoside-diphosphate reductase activity, thioredoxin disulfide as acceptor	b2235,b2234,b2675,b2676
GO:0005524	9.271796975183012e-06	22	441	molecular_function: ATP binding	b3053,b2315,b1098,b2675,b2234,b2553,b2231,b4258,b0185,b0924,b2316,b3702,b2567,b3256,b3052,b3935,b3699,b4052,b0955,b3700,b0470,b0949
GO:0006629	9.380251615617312e-06	9	74	biological_process: lipid metabolic process	b0182,b3256,b0185,b0954,b2316,b0180,b2563,b0181,b3255
GO:0006281	1.733050773668988e-05	9	80	biological_process: DNA repair	b0949,b2580,b1183,b1184,b2565,b3863,b3700,b0060,b0472
GO:0016740	2.0974189192186266e-05	25	576	molecular_function: transferase activity	b0948,b3053,b0921,b3863,b1098,b4259,b2828,b2563,b4373,b0181,b2564,b0185,b2316,b0215,b0184,b0060,b0182,b3052,b3066,b1099,b0640,b4372,b2827,b3701,b0470
GO:0008094	2.5994040336202554e-05	4	9	molecular_function: DNA-dependent ATPase activity	b1184,b2231,b1183,b3699
GO:2001295	2.6291363950977963e-05	3	3	biological_process: malonyl-CoA biosynthetic process	b2316,b3256,b0185
GO:0009317	2.6291363950977963e-05	3	3	cellular_component: acetyl-CoA carboxylase complex	b2316,b3255,b0185
GO:0006631	3.0386988013063345e-05	6	32	biological_process: fatty acid metabolic process	b3256,b0185,b0954,b2316,b2563,b3255
GO:0003677	5.826141404928975e-05	22	496	molecular_function: DNA binding	b1183,b3863,b4259,b0472,b2231,b0924,b2316,b0215,b0184,b3702,b0060,b3935,b3066,b1099,b0471,b3699,b4052,b0640,b3700,b3701,b0470,b0949
GO:0006270	0.0001185332056644036	3	5	biological_process: DNA replication initiation	b3702,b3935,b2496
GO:0005829	0.00012774594982986452	34	1032	cellular_component: cytosol	b3053,b0954,b2948,b1100,b3863,b3255,b1098,b2234,b2496,b0181,b2564,b2553,b3639,b2231,b4258,b0185,b0924,b2316,b0215,b0184,b2235,b3702,b1096,b2566,b2567,b3640,b3256,b3052,b0471,b3699,b4052,b2827,b3700,b3701
GO:0030261	0.00020212969164514448	3	6	biological_process: chromosome condensation	b0923,b0924,b0922
GO:0009295	0.00023555698656727657	4	16	cellular_component: nucleoid	b0923,b0924,b0471,b0922
GO:0003676	0.00024357252179831813	8	89	molecular_function: nucleic acid binding	b0948,b3935,b0215,b0184,b3863,b0214,b0183,b0060
GO:1990077	0.00031675309259794333	3	7	cellular_component: primosome complex	b4052,b3935,b3066
GO:0006269	0.00031675309259794333	3	7	biological_process: DNA replication, synthesis of RNA primer	b4052,b3935,b3066
GO:0015949	0.00044930737235941205	4	19	biological_process: nucleobase-containing small molecule interconversion	b2234,b2235,b2675,b1098
GO:0006302	0.0006556426898001908	3	9	biological_process: double-strand break repair	b3700,b3935,b2565
GO:0008693	0.0006598583666775019	2	2	molecular_function: 3-hydroxydecanoyl-[acyl-carrier-protein] dehydratase activity	b0180,b0954
GO:0019171	0.0006598583666775019	2	2	molecular_function: 3-hydroxyacyl-[acyl-carrier-protein] dehydratase activity	b0180,b0954
GO:0004317	0.0006598583666775019	2	2	molecular_function: 3-hydroxypalmitoyl-[acyl-carrier-protein] dehydratase activity	b0180,b0954
GO:0008659	0.0006598583666775019	2	2	molecular_function: (3R)-hydroxymyristoyl-[acyl-carrier-protein] dehydratase activity	b0180,b0954
GO:0047451	0.0006598583666775019	2	2	molecular_function: 3-hydroxyoctanoyl-[acyl-carrier-protein] dehydratase activity	b0180,b0954
GO:0004523	0.0006598583666775019	2	2	molecular_function: RNA-DNA hybrid ribonuclease activity	b0183,b0214
GO:0043137	0.0006598583666775019	2	2	biological_process: DNA replication, removal of RNA primer	b0183,b0214
GO:0009329	0.0006598583666775019	2	2	cellular_component: acetate CoA-transferase complex	b2316,b0185
GO:0042759	0.0006598583666775019	2	2	biological_process: long-chain fatty acid biosynthetic process	b2316,b0185
GO:0009355	0.0006598583666775019	2	2	cellular_component: DNA polymerase V complex	b1184,b1183
GO:0034335	0.0006598583666775019	2	2	molecular_function: DNA supercoiling activity	b2231,b3699
GO:0051301	9.409404257623848e-19	15	73	biological_process: cell division	b3933,b0090,b0083,b0089,b0095,b0084,b0091,b0634,b0088,b0085,b0086,b0890,b0093,b0087,b0094
GO:0007049	1.4959599213293306e-17	14	67	biological_process: cell cycle	b3933,b0090,b0083,b0089,b0095,b0084,b0091,b0088,b0085,b0086,b0890,b0093,b0087,b0094
GO:0009252	4.91101220861604e-16	12	47	biological_process: peptidoglycan biosynthetic process	b0090,b0089,b0084,b0091,b0634,b0092,b0088,b0085,b0086,b0635,b0087,b0149
GO:0008360	8.030786479047835e-16	12	49	biological_process: regulation of cell shape	b0090,b0089,b0084,b0091,b0634,b0092,b0088,b0085,b0086,b0635,b0087,b0149
GO:0071555	5.099518648968929e-15	13	78	biological_process: cell wall organization	b0090,b0089,b0084,b0633,b0091,b0634,b0092,b0088,b0085,b0086,b0635,b0087,b0149
GO:0032153	8.62816205639721e-11	8	32	cellular_component: cell division site	b3933,b0083,b0089,b0095,b0084,b0634,b0093,b0094
GO:0043093	1.9072701065633798e-09	7	29	biological_process: FtsZ-dependent cytokinesis	b3933,b0083,b0089,b0095,b0084,b0093,b0094
GO:0008955	2.54189929381057e-07	4	7	molecular_function: peptidoglycan glycosyltransferase activity	b0084,b0089,b0149,b0634
GO:0000917	3.921248643960676e-06	4	14	biological_process: division septum assembly	b0084,b0093,b0095,b3933
GO:0005515	2.5867145171236423e-05	19	1066	molecular_function: protein binding	b3034,b0088,b0083,b0095,b0093,b0094,b3933,b0089,b0890,b0635,b0090,b0084,b3019,b0091,b0085,b3030,b0637,b0149,b0636
GO:0009002	6.15749832111985e-05	3	10	molecular_function: serine-type D-Ala-D-Ala carboxypeptidase activity	b0084,b0635,b0149
GO:0090529	8.154121582323e-05	3	11	biological_process: cell septum assembly	b0095,b0093,b3933
GO:0008658	8.154121582323e-05	3	11	molecular_function: penicillin binding	b0084,b0635,b0149
GO:0030541	0.00010939061565443776	2	2	biological_process: plasmid partitioning	b3019,b3030
GO:0007059	0.00016556538294982106	3	14	biological_process: chromosome segregation	b3019,b3030,b0890
GO:0004180	0.00020260737830754726	3	15	molecular_function: carboxypeptidase activity	b0084,b0635,b0149
GO:0015836	0.0002449774867901376	2	3	biological_process: lipid-linked peptidoglycan transport	b0089,b0634
GO:0015648	0.0002449774867901376	2	3	molecular_function: lipid-linked peptidoglycan transporter activity	b0089,b0634
GO:0007062	0.00043347897914936255	2	4	biological_process: sister chromatid cohesion	b3019,b3030
GO:0003918	0.00043347897914936255	2	4	molecular_function: DNA topoisomerase type II (ATP-hydrolyzing) activity	b3019,b3030
GO:0009058	0.0004538233547471079	4	48	biological_process: biosynthetic process	b0085,b0088,b0091,b0086
GO:0006633	2.4632740011364982e-11	6	19	biological_process: fatty acid biosynthetic process	b1091,b1095,b1092,b1288,b1090,b1093
GO:0006629	1.5432669059186916e-09	7	74	biological_process: lipid metabolic process	b1091,b1095,b1092,b0736,b1288,b1090,b1093
GO:0043213	2.1324150636176342e-08	4	9	biological_process: bacteriocin transport	b0738,b0739,b0737,b0740
GO:0007049	4.390856312328487e-08	6	67	biological_process: cell cycle	b0741,b0740,b0742,b0739,b0738,b0737
GO:0006631	4.9235161360957365e-08	5	32	biological_process: fatty acid metabolic process	b1091,b1095,b1092,b1288,b1093
GO:0032153	4.9235161360957365e-08	5	32	cellular_component: cell division site	b0741,b0740,b0739,b0738,b0737
GO:0051301	7.276195740065868e-08	6	73	biological_process: cell division	b0741,b0740,b0742,b0739,b0738,b0737
GO:0017038	6.276715237451033e-07	3	5	biological_process: protein import	b0737,b0739,b0740
GO:0071237	2.113309004857981e-05	2	2	biological_process: cellular response to bacteriocin	b0739,b0740
GO:0004315	4.745862477706747e-05	2	3	molecular_function: 3-oxoacyl-[acyl-carrier-protein] synthase activity	b1091,b1095
GO:0030497	4.745862477706747e-05	2	3	biological_process: fatty acid elongation	b1288,b1093
GO:0055072	3.297450827778743e-28	22	28	biological_process: iron ion homeostasis	b0151,b0805,b4289,b0153,b3409,b3408,b0592,b4288,b0588,b0152,b0590,b4293,b0589,b1102,b2155,b4291,b4290,b0585,b0150,b4292,b4287,b0584
GO:0006811	3.3115791795011035e-21	27	113	biological_process: ion transport	b0805,b0151,b4289,b4036,b0153,b3409,b3966,b3408,b0592,b4288,b0588,b0152,b0590,b4293,b1102,b2155,b4291,b0589,b0696,b4290,b0697,b0585,b0150,b4292,b0698,b4287,b0584
GO:0043190	1.8440673138134367e-17	22	90	cellular_component: ATP-binding cassette (ABC) transporter complex	b0151,b4034,b0153,b3749,b0857,b1124,b1709,b0887,b3450,b0588,b1126,b0590,b0855,b4032,b0856,b0886,b0914,b1711,b4033,b4035,b1125,b3750
GO:0033214	6.682850413233935e-14	10	11	biological_process: iron assimilation by chelation and transport	b0151,b4367,b0590,b0585,b0589,b4289,b4290,b0584,b4288,b0153
GO:0009239	1.1141821132903751e-11	8	8	biological_process: enterobactin biosynthetic process	b0595,b0593,b0597,b0583,b0586,b0594,b0596,b4511
GO:0044718	5.69919062992644e-10	7	8	biological_process: siderophore transmembrane transport	b0805,b1252,b1102,b4291,b2155,b0150,b0584
GO:0015847	1.509433161410092e-09	8	15	biological_process: putrescine transport	b0854,b0857,b0855,b1125,b1124,b0856,b1123,b1126
GO:0055085	2.8786566195197504e-09	27	357	biological_process: transmembrane transport	b1252,b4289,b4034,b0153,b3005,b0857,b1124,b1709,b0887,b3006,b3452,b3453,b4288,b1126,b0590,b0589,b0855,b4032,b0856,b0886,b0914,b1711,b4033,b3451,b1125,b3750,b4287
GO:0015889	4.6380833037407365e-09	6	6	biological_process: cobalamin transport	b1252,b1710,b3966,b1709,b0158,b1711
GO:0015344	1.1498691870048234e-08	6	7	molecular_function: siderophore uptake transmembrane transporter activity	b0805,b1102,b4291,b2155,b0150,b0584
GO:0015891	5.0208422945001245e-08	6	9	biological_process: siderophore transport	b0805,b1252,b1102,b4291,b0150,b0584
GO:0042956	9.45459995705422e-08	5	5	biological_process: maltodextrin transport	b4033,b4035,b4034,b4032,b4036
GO:0038023	2.313626431807606e-07	5	6	molecular_function: signaling receptor activity	b0805,b1102,b4291,b0150,b0584
GO:0015685	2.313626431807606e-07	5	6	biological_process: ferric-enterobactin transport	b0590,b0589,b0592,b0584,b0588
GO:0015768	2.313626431807606e-07	5	6	biological_process: maltose transport	b4033,b4035,b4034,b4032,b4036
GO:0001407	1.9397400165294313e-06	4	4	biological_process: glycerophosphodiester transmembrane transport	b3450,b3452,b3451,b3453
GO:0016020	4.201346484356512e-06	48	1299	cellular_component: membrane	b0805,b0151,b4367,b1252,b4289,b0594,b4036,b0695,b0153,b3005,b3409,b0915,b3749,b0857,b3966,b1124,b1709,b0887,b3450,b3006,b3452,b4288,b0588,b1126,b0590,b1102,b2155,b4291,b0589,b0583,b0696,b0855,b4032,b0856,b0886,b0914,b0697,b1711,b4033,b4035,b0150,b3451,b1125,b3750,b3751,b0698,b4287,b0584
GO:0015620	4.659421058590805e-06	4	5	molecular_function: ferric-enterobactin transmembrane transporter activity	b0588,b0584,b0590,b0589
GO:0015846	4.659421058590805e-06	4	5	biological_process: polyamine transport	b0854,b1123,b1126,b0855
GO:0015794	4.659421058590805e-06	4	5	biological_process: glycerol-3-phosphate transmembrane transport	b3450,b3452,b3451,b3453
GO:0016887	5.695158036340717e-06	12	114	molecular_function: ATPase activity	b0151,b3749,b4035,b0855,b1709,b0887,b3450,b4287,b0886,b0914,b0588,b1126
GO:0055052	1.103157779989314e-05	6	23	cellular_component: ATP-binding cassette (ABC) transporter complex, substrate-binding subunit-containing	b4035,b0589,b3451,b4034,b3450,b3452
GO:0047527	4.0476309695804405e-05	3	3	molecular_function: 2,3-dihydroxybenzoate-serine ligase activity	b0595,b0594,b0586
GO:0015595	4.0476309695804405e-05	3	3	molecular_function: spermidine-importing ATPase activity	b1124,b1126,b1125
GO:0031992	4.0476309695804405e-05	3	3	molecular_function: energy transducer activity	b3006,b1252,b3005
GO:0015420	4.0476309695804405e-05	3	3	molecular_function: cobalamin-transporting ATPase activity	b3966,b1709,b1711
GO:0015752	4.0476309695804405e-05	3	3	biological_process: D-ribose transmembrane transport	b3750,b3749,b3751
GO:1904981	4.0476309695804405e-05	3	3	biological_process: maltose transmembrane transport	b4032,b4033,b4035
GO:0015423	4.0476309695804405e-05	3	3	molecular_function: maltose-transporting ATPase activity	b4032,b4033,b4035
GO:1990060	4.0476309695804405e-05	3	3	cellular_component: maltose transport complex	b4032,b4033,b4035
GO:0043213	4.5840500516215484e-05	4	9	biological_process: bacteriocin transport	b2155,b3006,b1252,b3005
GO:0031230	6.874557168087346e-05	4	10	cellular_component: intrinsic component of cell outer membrane	b2155,b0584,b4036,b3966
GO:0042626	7.538964242801746e-05	5	20	molecular_function: ATPase activity, coupled to transmembrane movement of substances	b1709,b0887,b4287,b0886,b0914
GO:0008643	7.741468835102386e-05	10	104	biological_process: carbohydrate transport	b3749,b4033,b4035,b4034,b3450,b4032,b3750,b3751,b4037,b4036
GO:0019290	9.447716048774477e-05	3	4	biological_process: siderophore biosynthetic process	b0594,b4511,b0596
GO:0008556	9.447716048774477e-05	3	4	molecular_function: potassium-transporting ATPase activity	b0697,b0696,b0698
GO:0031004	9.447716048774477e-05	3	4	cellular_component: potassium ion-transporting ATPase complex	b0697,b0696,b0698
GO:0015169	9.447716048774477e-05	3	4	molecular_function: glycerol-3-phosphate transmembrane transporter activity	b3450,b3451,b3452
GO:0019904	9.903400804087962e-05	4	11	molecular_function: protein domain specific binding	b0150,b0584,b1252,b3966
GO:1903711	0.0001817072334742666	3	5	biological_process: spermidine transmembrane transport	b1124,b1126,b1125
GO:0098797	0.00030919820432864683	3	6	cellular_component: plasma membrane protein complex	b3006,b1252,b3005
GO:0005887	0.00033867747230937717	24	546	cellular_component: integral component of plasma membrane	b4289,b0695,b0153,b3005,b3409,b1124,b0887,b3006,b3452,b4288,b0590,b0589,b0696,b4032,b0856,b0886,b0914,b0697,b1711,b4033,b3451,b1125,b3750,b0698
GO:0005886	0.0004940924080759541	39	1139	cellular_component: plasma membrane	b0151,b4367,b1252,b4289,b0586,b0695,b0153,b3005,b3409,b0915,b3749,b0857,b1124,b1709,b0887,b3450,b3006,b3452,b4288,b0588,b1126,b0595,b0590,b0589,b0696,b0855,b4032,b0856,b0886,b0914,b0697,b1711,b4033,b4035,b3451,b1125,b3750,b4287,b0698
GO:0042597	0.000535956682611991	12	184	cellular_component: periplasmic space	b0152,b4037,b1710,b0854,b4034,b4292,b3751,b1123,b4290,b3453,b0592,b0158
GO:0005524	0.0008289336117056276	20	441	molecular_function: ATP binding	b0151,b0586,b0594,b0695,b0915,b3749,b1709,b0887,b3450,b0588,b1126,b3752,b0696,b0855,b3418,b0886,b0697,b0914,b4035,b4287
GO:0030288	0.0008515536455522783	12	194	cellular_component: outer membrane-bounded periplasmic space	b0152,b1252,b4037,b0854,b4034,b1452,b3751,b1123,b4290,b3453,b0592,b0158
GO:0090482	0.0008784910755274821	2	2	molecular_function: vitamin transmembrane transporter activity	b3966,b1711
GO:0035461	0.0008784910755274821	2	2	biological_process: vitamin transmembrane transport	b3966,b1711
GO:0015343	0.0008784910755274821	2	2	molecular_function: siderophore transmembrane transporter activity	b2155,b1252
GO:0015603	0.0008784910755274821	2	2	molecular_function: iron chelate transmembrane transporter activity	b4288,b4289
GO:0009366	0.0008784910755274821	2	2	cellular_component: enterobactin synthetase complex	b0583,b0586
GO:0042914	0.0008784910755274821	2	2	biological_process: colicin transport	b0584,b1252
GO:0019810	0.0008784910755274821	2	2	molecular_function: putrescine binding	b0854,b1123
GO:0015417	0.0008784910755274821	2	2	molecular_function: polyamine-transporting ATPase activity	b0855,b1126
GO:0001406	0.0008784910755274821	2	2	molecular_function: glycerophosphodiester transmembrane transporter activity	b3450,b3452
GO:0019303	0.0008784910755274821	2	2	biological_process: D-ribose catabolic process	b3752,b3748
GO:0015591	0.0008784910755274821	2	2	molecular_function: D-ribose transmembrane transporter activity	b3750,b3749
GO:0016021	0.0009132639882545102	34	966	cellular_component: integral component of membrane	b0805,b1252,b4289,b4036,b0695,b0153,b3005,b3409,b0857,b3966,b1124,b0887,b3006,b3452,b4288,b0590,b1102,b2155,b4291,b0589,b0696,b4032,b0856,b0886,b0914,b0697,b1711,b4033,b0150,b3451,b1125,b3750,b0698,b0584
GO:0006826	0.0009965705624058584	3	9	biological_process: iron ion transport	b4291,b3409,b0585
GO:0006212	9.813147370955789e-13	7	9	biological_process: uracil catabolic process	b1008,b1012,b1009,b1006,b1007,b1011,b1010
GO:0070814	1.0442246720137159e-11	6	6	biological_process: hydrogen sulfide biosynthetic process	b2764,b2750,b2751,b2752,b2763,b2762
GO:0000103	2.6184618767705988e-11	6	7	biological_process: sulfate assimilation	b2764,b4214,b2750,b2751,b2763,b2752
GO:0019740	5.801886597171984e-11	6	8	biological_process: nitrogen utilization	b1008,b1012,b1009,b1007,b1011,b1010
GO:0006208	1.169648589063698e-10	6	9	biological_process: pyrimidine nucleobase catabolic process	b1008,b1012,b1009,b1007,b1011,b1010
GO:0015419	6.222638621086533e-10	5	5	molecular_function: ATPase-coupled sulfate transmembrane transporter activity	b2425,b2424,b3917,b2423,b2422
GO:0006790	1.6114606467295627e-09	6	14	biological_process: sulfur compound metabolic process	b2425,b4214,b2751,b3917,b2752,b2762
GO:0008272	3.3090678520419394e-09	5	7	biological_process: sulfate transport	b2425,b3917,b2424,b2423,b2422
GO:1902358	3.3090678520419394e-09	5	7	biological_process: sulfate transmembrane transport	b2425,b3917,b2424,b2423,b2422
GO:0019344	6.415206528327089e-09	5	8	biological_process: cysteine biosynthetic process	b2421,b2764,b3607,b2763,b2414
GO:0006535	4.990039488953277e-06	3	4	biological_process: cysteine biosynthetic process from serine	b2421,b3607,b2414
GO:0043190	7.420899044742207e-05	6	90	cellular_component: ATP-binding cassette (ABC) transporter complex	b0831,b0832,b2424,b0830,b2423,b2422
GO:1901681	0.0001252002823424952	2	2	molecular_function: sulfur compound binding	b3917,b2425
GO:0004124	0.0001252002823424952	2	2	molecular_function: cysteine synthase activity	b2421,b2414
GO:0009333	0.0001252002823424952	2	2	cellular_component: cysteine synthase complex	b3607,b2414
GO:0015709	0.0001252002823424952	2	2	biological_process: thiosulfate transport	b2422,b2425
GO:0043199	0.0001252002823424952	2	2	molecular_function: sulfate binding	b3917,b2425
GO:0004781	0.0001252002823424952	2	2	molecular_function: sulfate adenylyltransferase (ATP) activity	b2751,b2752
GO:0009337	0.0001252002823424952	2	2	cellular_component: sulfite reductase complex (NADPH)	b2764,b2763
GO:0004783	0.0001252002823424952	2	2	molecular_function: sulfite reductase (NADPH) activity	b2764,b2763
GO:0042602	0.00028028561565523184	2	3	molecular_function: riboflavin reductase (NADPH) activity	b2764,b1007
GO:0006096	4.889046469713615e-16	13	19	biological_process: glycolytic process	b2779,b3919,b1723,b3916,b2926,b1676,b4025,b1779,b4395,b1854,b2925,b0755,b3612
GO:0006094	3.060530954659648e-08	7	14	biological_process: gluconeogenesis	b3403,b3919,b2926,b4232,b4025,b2925,b0755
GO:0008152	3.144591301508165e-07	14	119	biological_process: metabolic process	b3431,b3403,b3916,b0403,b4167,b1676,b4232,b3080,b3428,b1854,b3956,b1767,b3417,b3430
GO:0005737	7.124503922623549e-07	39	848	cellular_component: cytoplasm	b3919,b3403,b2779,b1780,b3064,b3417,b4168,b4025,b1779,b0688,b4395,b1767,b0755,b4058,b4166,b3916,b4173,b1914,b1676,b3428,b3164,b0143,b3416,b3813,b0779,b1913,b1807,b1493,b3432,b3780,b3612,b2926,b0403,b1084,b4232,b2927,b1854,b2518,b0687
GO:0005980	2.136292669392446e-06	4	4	biological_process: glycogen catabolic process	b3431,b3416,b3428,b3417
GO:0005977	2.136292669392446e-06	4	4	biological_process: glycogen metabolic process	b3431,b3428,b3430,b3432
GO:0003824	3.883046529313045e-06	23	375	molecular_function: catalytic activity	b3431,b3919,b3403,b1780,b4167,b4395,b3956,b1767,b0755,b3916,b3517,b1676,b3614,b3428,b1493,b3432,b3430,b3612,b0403,b4232,b1854,b2925,b3417
GO:0005975	6.3197072327125874e-06	14	154	biological_process: carbohydrate metabolic process	b3431,b3416,b1723,b0403,b1780,b4232,b2925,b3614,b3080,b3428,b0688,b3432,b3417,b3430
GO:0006289	1.0460818384729074e-05	4	6	biological_process: nucleotide-excision repair	b3813,b4058,b1913,b0779
GO:0005829	1.534941998211098e-05	41	1032	cellular_component: cytosol	b3919,b3403,b1723,b2779,b1780,b3064,b3417,b4025,b1779,b0688,b3956,b1767,b0755,b4058,b3916,b3407,b1867,b4172,b4173,b3517,b1676,b3164,b0143,b3416,b3813,b2733,b1807,b1493,b3432,b4174,b3780,b3612,b0144,b2926,b4232,b2927,b3429,b1854,b2518,b2925,b0687
GO:0042802	3.485543875113687e-05	23	429	molecular_function: identical protein binding	b3919,b2779,b3510,b1723,b4170,b3064,b4168,b4025,b1767,b4058,b3916,b1676,b3164,b3506,b0779,b2733,b1807,b3430,b1084,b4232,b1854,b2925,b0687
GO:0004619	4.349858457063845e-05	3	3	molecular_function: phosphoglycerate mutase activity	b4395,b0755,b3612
GO:0009381	4.349858457063845e-05	3	3	molecular_function: excinuclease ABC activity	b0779,b1913,b4058
GO:0005978	4.349858457063845e-05	3	3	biological_process: glycogen biosynthetic process	b3432,b3429,b3430
GO:0000287	4.520093499349984e-05	14	184	molecular_function: magnesium ion binding	b3403,b2779,b1723,b1084,b3064,b3916,b0142,b1676,b4232,b0688,b3164,b1854,b3956,b3430
GO:0005524	5.3754235151429376e-05	23	441	molecular_function: ATP binding	b3403,b1723,b4170,b4167,b4168,b0755,b4058,b3916,b4173,b1676,b4171,b2786,b0143,b3813,b0779,b2733,b3780,b3430,b0144,b2926,b0142,b1854,b2518
GO:0006298	7.552380240885857e-05	4	10	biological_process: mismatch repair	b1960,b2733,b3813,b4170
GO:0000166	8.01147792751794e-05	25	517	molecular_function: nucleotide binding	b3403,b1723,b4170,b4167,b4168,b1779,b2628,b4058,b3916,b4173,b1676,b4171,b2786,b0143,b3813,b0779,b2733,b3780,b3430,b0144,b2926,b0142,b4232,b1854,b2518
GO:0009380	0.00010149211658219522	3	4	cellular_component: excinuclease repair complex	b0779,b1913,b4058
GO:0002949	0.00010149211658219522	3	4	biological_process: tRNA threonylcarbamoyladenosine modification	b1807,b4168,b3064
GO:0051454	0.00019512336811228423	3	5	biological_process: intracellular pH elevation	b1492,b3517,b1493
GO:0006974	0.0002993961604584752	15	248	biological_process: cellular response to DNA damage stimulus	b1960,b3431,b3813,b1723,b4170,b0779,b1780,b3515,b2733,b1913,b3429,b3080,b3432,b3516,b4058
GO:0009268	0.0003318990053412239	3	6	biological_process: response to pH	b0486,b3511,b3509
GO:0016868	0.0003318990053412239	3	6	molecular_function: intramolecular transferase activity, phosphotransferases	b4395,b0688,b0755
GO:0005975	5.280365747388936e-06	5	154	biological_process: carbohydrate metabolic process	b1317,b1316,b1314,b1313,b1315
GO:0055114	3.6207083153709986e-31	64	448	biological_process: oxidation-reduction process	b3152,b0042,b1415,b2485,b1136,b2278,b0723,b2489,b1656,b0429,b2286,b0432,b3962,b4515,b0307,b2463,b4153,b1698,b2280,b0724,b3908,b1479,b0726,b1387,b0978,b0734,b0431,b2284,b0041,b2488,b2484,b4154,b0306,b2769,b1697,b2276,b2483,b2283,b2279,b2285,b2287,b2770,b2481,b2282,b2277,b2486,b1109,b2487,b2482,b1378,b0722,b0430,b0721,b4211,b3003,b1800,b2288,b0733,b0979,b2490,b2210,b3236,b0073,b2281
GO:0009060	9.048661628031483e-19	17	24	biological_process: aerobic respiration	b0721,b2276,b0724,b0723,b0429,b2283,b2287,b0431,b0432,b2284,b2282,b1109,b2277,b0430,b2488,b2281,b0722
GO:0003954	1.0526152288434227e-17	15	18	molecular_function: NADH dehydrogenase activity	b2280,b2276,b2278,b2283,b2279,b2285,b2286,b2287,b2288,b2284,b2282,b2277,b2488,b2281,b2484
GO:0030964	1.1274432537749268e-17	14	14	cellular_component: NADH dehydrogenase complex	b2280,b2276,b2278,b2283,b2279,b2285,b2286,b2287,b2288,b2284,b2282,b2277,b1109,b2281
GO:0006099	2.0102957266254776e-17	17	29	biological_process: tricarboxylic acid cycle	b0727,b4122,b4153,b0721,b1136,b0724,b0723,b0728,b1612,b0726,b0518,b0729,b1611,b0320,b2210,b3236,b0722
GO:0048038	4.877411410354466e-17	15	20	molecular_function: quinone binding	b2280,b2278,b2276,b2283,b2489,b2286,b2279,b2285,b2287,b2288,b2284,b2282,b2277,b2487,b2281
GO:0045272	6.97324610066189e-17	14	16	cellular_component: plasma membrane respiratory chain complex I	b2276,b2280,b2278,b2283,b2279,b2285,b2286,b2287,b2288,b2284,b2282,b2277,b2488,b2281
GO:0008137	1.5913459103637326e-16	14	17	molecular_function: NADH dehydrogenase (ubiquinone) activity	b2280,b2276,b2278,b2283,b2279,b2286,b2287,b2288,b2489,b2284,b2277,b1109,b2482,b2487
GO:0009055	3.919831937169155e-14	21	83	molecular_function: electron transfer activity	b0042,b0723,b0429,b0432,b4153,b1698,b0724,b0734,b0431,b0041,b2769,b4154,b1697,b2283,b2770,b0722,b0430,b0721,b0733,b0979,b0978
GO:0015990	8.796036305539247e-12	9	9	biological_process: electron transport coupled proton transport	b2276,b2278,b0429,b2287,b0432,b0431,b2277,b0430,b2484
GO:0019646	8.796036305539247e-12	9	9	biological_process: aerobic electron transport chain	b0429,b0734,b0431,b0432,b0733,b0979,b1109,b0978,b0430
GO:0016491	5.180258072211807e-11	35	356	molecular_function: oxidoreductase activity	b1415,b2485,b1136,b0723,b2489,b1656,b0429,b0432,b3962,b2463,b4153,b0724,b3908,b1479,b0726,b1387,b2484,b4154,b2483,b2283,b2285,b2481,b1109,b2486,b2482,b2487,b1378,b0430,b4211,b3003,b1800,b2490,b2210,b3236,b0073
GO:0016651	1.5558552864502247e-09	8	11	molecular_function: oxidoreductase activity, acting on NAD(P)H	b2283,b2279,b2286,b2288,b2284,b2487,b2488,b2281
GO:0042773	4.829406568589674e-09	7	8	biological_process: ATP synthesis coupled electron transport	b2276,b2278,b2283,b2279,b0432,b2277,b2482
GO:0022900	4.922075504253997e-09	14	63	biological_process: electron transport chain	b4153,b2769,b1698,b0042,b1697,b4154,b1136,b0721,b0723,b2770,b0432,b0041,b1378,b0722
GO:0044569	5.644898458269397e-09	8	13	cellular_component: [Ni-Fe] hydrogenase complex	b2483,b2485,b2481,b2486,b2482,b2487,b2488,b2484
GO:0000104	2.8849273045162986e-08	6	6	molecular_function: succinate dehydrogenase activity	b4154,b0721,b4151,b0723,b4152,b0722
GO:0050136	2.8849273045162986e-08	6	6	molecular_function: NADH dehydrogenase (quinone) activity	b2276,b2279,b2287,b2288,b2286,b2281
GO:0016682	1.5467557405891992e-07	6	8	molecular_function: oxidoreductase activity, acting on diphenols and related substances as donors, oxygen as acceptor	b0734,b0431,b0432,b0733,b0979,b0978
GO:0006119	4.303583333031613e-07	5	5	biological_process: oxidative phosphorylation	b0734,b0733,b0979,b4515,b0978
GO:0015078	9.744088639371136e-07	6	11	molecular_function: proton transmembrane transporter activity	b3738,b0429,b3737,b0431,b0432,b0430
GO:0006108	1.0465443043094856e-06	5	6	biological_process: malate metabolic process	b1479,b1800,b1611,b3236,b2463
GO:0051539	1.5749311348541019e-06	15	117	molecular_function: 4 iron, 4 sulfur cluster binding	b4122,b4153,b0072,b1612,b0724,b2283,b2489,b2287,b2481,b2284,b2487,b2281,b1378,b0307,b2488
GO:0051287	4.192452779607877e-06	9	42	molecular_function: NAD binding	b3152,b1136,b1479,b1800,b2286,b2284,b2487,b0073,b2463
GO:0006113	4.212184651786519e-06	5	8	biological_process: fermentation	b4153,b4154,b4151,b4152,b3236
GO:0051536	5.081050867294973e-06	16	146	molecular_function: iron-sulfur cluster binding	b4122,b4153,b0072,b1612,b0724,b2283,b2489,b2285,b2287,b2481,b2284,b2487,b2281,b1378,b0307,b2488
GO:0004775	6.483565766213575e-06	4	4	molecular_function: succinate-CoA ligase (ADP-forming) activity	b0729,b0728,b0320,b0518
GO:0009361	6.483565766213575e-06	4	4	cellular_component: succinate-CoA ligase complex (ADP-forming)	b0729,b0728,b0320,b0518
GO:0015453	6.483565766213575e-06	4	4	molecular_function: oxidoreduction-driven active transmembrane transporter activity	b0431,b0429,b0430,b0432
GO:0009486	6.483565766213575e-06	4	4	molecular_function: cytochrome bo3 ubiquinol oxidase activity	b0431,b0429,b0430,b0432
GO:0009319	6.483565766213575e-06	4	4	cellular_component: cytochrome o ubiquinol oxidase complex	b0431,b0429,b0430,b0432
GO:0070069	6.483565766213575e-06	4	4	cellular_component: cytochrome complex	b0733,b0978,b0979,b0734
GO:0102040	6.483565766213575e-06	4	4	molecular_function: fumarate reductase (menaquinone)	b4152,b4153,b4154,b4151
GO:0045284	6.483565766213575e-06	4	4	cellular_component: plasma membrane fumarate reductase complex	b4152,b4153,b4154,b4151
GO:0009098	9.491362881337358e-05	4	8	biological_process: leucine biosynthetic process	b0071,b0073,b0072,b0074
GO:0004776	9.967583527633118e-05	3	3	molecular_function: succinate-CoA ligase (GDP-forming) activity	b0729,b0320,b0518
GO:0008827	9.967583527633118e-05	3	3	molecular_function: cytochrome o ubiquinol oxidase activity	b0429,b0430,b0432
GO:0004129	9.967583527633118e-05	3	3	molecular_function: cytochrome-c oxidase activity	b0431,b0430,b0432
GO:0008177	9.967583527633118e-05	3	3	molecular_function: succinate dehydrogenase (ubiquinone) activity	b0723,b0721,b0724
GO:0006754	0.00014869814040537093	4	9	biological_process: ATP biosynthetic process	b3738,b3733,b3737,b3731
GO:0046933	0.00014869814040537093	4	9	molecular_function: proton-transporting ATP synthase activity, rotational mechanism	b3738,b3733,b3737,b3731
GO:0015986	0.00014869814040537093	4	9	biological_process: ATP synthesis coupled proton transport	b3738,b3733,b3737,b3731
GO:0016627	0.00022167144755928835	4	10	molecular_function: oxidoreductase activity, acting on the CH-CH group of donors	b4154,b0723,b0721,b0722
GO:0016655	0.00023135144293612455	3	4	molecular_function: oxidoreductase activity, acting on NAD(P)H, quinone or similar compound as acceptor	b4211,b2286,b2282
GO:0015765	0.00023135144293612455	3	4	biological_process: methylgalactoside transport	b2148,b2150,b2149
GO:0045263	0.00023135144293612455	3	4	cellular_component: proton-transporting ATP synthase complex, coupling factor F(o)	b3738,b3739,b3737
GO:0050660	0.0004234900001812514	8	61	molecular_function: flavin adenine dinucleotide binding	b2769,b4154,b1698,b0042,b0723,b3962,b1109,b2210
GO:0048039	0.00044246575869328177	3	5	molecular_function: ubiquinone binding	b0721,b2277,b0431
GO:0004333	0.00044246575869328177	3	5	molecular_function: fumarate hydratase activity	b4122,b1611,b1612
GO:0005886	0.0004486368914531626	50	1139	cellular_component: plasma membrane	b3739,b2485,b2278,b0723,b0429,b2286,b0432,b4515,b4153,b2280,b0724,b2148,b3737,b0734,b2149,b0431,b2284,b4123,b2484,b3733,b4154,b1496,b4151,b2276,b2483,b3738,b2283,b3528,b0428,b0518,b2279,b2285,b2287,b3731,b2282,b2277,b2486,b1109,b2482,b0722,b0321,b0430,b0721,b4152,b2288,b0869,b0733,b0979,b0978,b2281
GO:0009061	0.0005932972922243402	7	49	biological_process: anaerobic respiration	b4154,b4153,b4151,b0723,b4152,b1109,b3236
GO:0020037	0.0010081555378619858	6	39	molecular_function: heme binding	b0721,b0734,b0431,b0733,b0978,b0722
GO:0015757	0.001164267547326499	3	7	biological_process: galactose transmembrane transport	b2150,b2149,b2148
GO:0009389	6.730440098974731e-15	6	6	molecular_function: dimethyl sulfoxide reductase activity	b1587,b0894,b0896,b1588,b0895,b1590
GO:0009061	1.1325301538358257e-13	8	49	biological_process: anaerobic respiration	b1587,b0894,b0997,b0896,b0996,b1588,b0895,b1590
GO:0009390	3.8828887783923057e-10	4	4	cellular_component: dimethyl sulfoxide reductase complex	b0894,b0896,b0895,b1590
GO:0043546	1.0279417380150076e-09	5	18	molecular_function: molybdopterin cofactor binding	b1587,b0894,b0997,b0998,b1588
GO:0019645	7.556031493299913e-08	4	15	biological_process: anaerobic electron transport chain	b0997,b0996,b0896,b1590
GO:0030151	9.767264378476004e-08	4	16	molecular_function: molybdenum ion binding	b0997,b0894,b1587,b1588
GO:0055114	1.7846384860909224e-07	9	448	biological_process: oxidation-reduction process	b1587,b1589,b0894,b0997,b0896,b0996,b1588,b0895,b1590
GO:0009055	1.9671752506726477e-06	5	83	molecular_function: electron transfer activity	b1587,b0894,b0997,b0996,b1588
GO:0051539	1.0465668595086795e-05	5	117	molecular_function: 4 iron, 4 sulfur cluster binding	b1587,b1589,b0894,b1588,b0895
GO:0033797	1.4911900757922708e-05	2	2	molecular_function: selenate reductase activity	b1587,b1588
GO:0051536	3.0462978053176565e-05	5	146	molecular_function: iron-sulfur cluster binding	b1587,b1589,b0894,b1588,b0895
GO:0030288	0.0001182927951816091	5	194	cellular_component: outer membrane-bounded periplasmic space	b1587,b0894,b0997,b0996,b1588
GO:0031237	0.00018124738539470668	2	7	cellular_component: intrinsic component of periplasmic side of plasma membrane	b0894,b0895
GO:0016491	0.0001956118781191726	6	356	molecular_function: oxidoreductase activity	b1587,b0894,b0997,b0896,b1588,b1590
GO:0009432	3.5957676026106225e-09	5	30	biological_process: SOS response	b2698,b0958,b2699,b2616,b1848
GO:0006740	9.7673051590138e-06	2	2	biological_process: NADPH regeneration	b1603,b1602
GO:0008750	9.7673051590138e-06	2	2	molecular_function: NAD(P)+ transhydrogenase (AB-specific) activity	b1603,b1602
GO:0006281	2.1936995692859622e-05	4	80	biological_process: DNA repair	b2698,b2616,b2699,b1848
GO:0008746	2.1949707682630706e-05	2	3	molecular_function: NAD(P)+ transhydrogenase activity	b1603,b1602
GO:0016226	1.4788679465452828e-14	6	19	biological_process: iron-sulfur cluster assembly	b1679,b1681,b1680,b1683,b1684,b1682
GO:1990229	9.557252431531976e-09	3	3	cellular_component: iron-sulfur cluster assembly complex	b1682,b1683,b1681
GO:0031162	4.073957320987509e-06	2	2	biological_process: sulfur incorporation into metallo-sulfur cluster	b1679,b1680
GO:0006979	4.564499262235588e-05	3	51	biological_process: response to oxidative stress	b1679,b1684,b1681
GO:0006526	3.520548773124842e-14	9	12	biological_process: arginine biosynthetic process	b2818,b3172,b4254,b3359,b0273,b3960,b3958,b3957,b3959
GO:0042908	6.464052691342069e-14	10	20	biological_process: xenobiotic transport	b3266,b2075,b2076,b3513,b0462,b3514,b3265,b0463,b2470,b2074
GO:0015721	2.5926559617704934e-12	8	12	biological_process: bile acid and bile salt transport	b2075,b3035,b2076,b3513,b3514,b2074,b0463,b2470
GO:0015125	1.0049507102975107e-11	7	8	molecular_function: bile acid transmembrane transporter activity	b2075,b3035,b2076,b3513,b3514,b2074,b2470
GO:0015562	4.0199712377054174e-11	8	17	molecular_function: efflux transmembrane transporter activity	b3266,b0878,b3035,b0462,b0879,b3514,b2074,b2470
GO:0022857	2.3456974901716566e-09	16	213	molecular_function: transmembrane transporter activity	b3266,b0878,b2075,b2077,b0862,b2076,b3513,b0462,b0861,b0879,b3514,b3265,b0463,b2470,b1117,b2074
GO:1990281	5.520968901440708e-09	5	5	cellular_component: efflux pump complex	b0878,b3035,b0462,b2074,b0463
GO:0044874	5.520968901440708e-09	5	5	biological_process: lipoprotein localization to outer membrane	b0891,b1209,b1118,b1116,b1117
GO:0042450	5.632841691628248e-08	5	8	biological_process: arginine biosynthetic process via ornithine	b4254,b3359,b3960,b0273,b3959
GO:0097638	2.0366225160768785e-07	4	4	biological_process: L-arginine import across plasma membrane	b0864,b0860,b0862,b0861
GO:0042953	2.0366225160768785e-07	4	4	biological_process: lipoprotein transport	b1116,b1118,b1117,b0891
GO:0042910	2.387948859368742e-07	6	21	molecular_function: xenobiotic transmembrane transporter activity	b3513,b0462,b3514,b3265,b0463,b2074
GO:0055085	2.8321339689053303e-06	16	357	biological_process: transmembrane transport	b3266,b0878,b2075,b2077,b3035,b0862,b2076,b3513,b0462,b0861,b3514,b3265,b0463,b2470,b1117,b2074
GO:0008652	3.0934320313577843e-06	9	100	biological_process: cellular amino acid biosynthetic process	b2818,b3172,b4254,b3359,b0273,b3960,b3958,b3957,b3959
GO:0046677	3.3527837919441432e-06	9	101	biological_process: response to antibiotic	b0878,b3191,b3035,b3513,b0879,b3514,b3265,b0463,b2470
GO:1990196	7.564487784263004e-06	3	3	cellular_component: MacAB-TolC complex	b0878,b3035,b0879
GO:0030288	1.7697055325936696e-05	11	194	cellular_component: outer membrane-bounded periplasmic space	b3035,b0891,b3192,b1743,b0860,b0462,b1209,b0863,b1116,b3193,b0463
GO:0015914	1.7777204299461225e-05	3	4	biological_process: phospholipid transport	b3192,b3194,b3193
GO:0098797	5.8976210971228645e-05	3	6	cellular_component: plasma membrane protein complex	b1116,b1118,b1117
GO:0071705	5.914385234569283e-05	4	17	biological_process: nitrogen compound transport	b0863,b0860,b0862,b0861
GO:0009636	9.064844258890382e-05	4	19	biological_process: response to toxic substance	b3514,b2470,b3513,b3035
GO:0016020	0.00027278531586974567	28	1299	cellular_component: membrane	b2077,b2076,b0860,b2078,b0463,b2470,b1117,b3266,b0878,b1846,b3035,b1118,b0462,b1209,b0861,b0879,b3193,b3265,b0862,b0863,b3513,b3514,b2074,b2075,b3195,b1116,b0864,b3194
GO:0014070	0.00028944468301756625	2	2	biological_process: response to organic cyclic compound	b1743,b3035
GO:0006591	0.00028944468301756625	2	2	biological_process: ornithine metabolic process	b0273,b4254
GO:0005548	0.00028944468301756625	2	2	molecular_function: phospholipid transporter activity	b3194,b3193
GO:0031226	0.0005649191505019555	3	13	cellular_component: intrinsic component of plasma membrane	b3265,b0463,b3513
GO:0006189	2.158257170859408e-16	11	12	biological_process: 'de novo' IMP biosynthetic process	b2500,b0523,b1849,b2476,b1131,b0522,b4006,b2499,b2312,b4005,b2557
GO:0006164	3.6583125600549167e-16	12	18	biological_process: purine nucleotide biosynthetic process	b2500,b0523,b0529,b1849,b2476,b1131,b0522,b4006,b2499,b2312,b4005,b2557
GO:0006221	3.6351782530540595e-13	9	11	biological_process: pyrimidine nucleotide biosynthetic process	b0032,b3642,b0945,b0033,b1062,b4246,b4244,b1281,b4245
GO:0044205	4.2837459180883576e-11	7	7	biological_process: 'de novo' UMP biosynthetic process	b0032,b3642,b0945,b0033,b1062,b1281,b4245
GO:0006207	2.4229188128763675e-10	7	9	biological_process: 'de novo' pyrimidine nucleobase biosynthetic process	b0032,b3642,b0945,b1062,b4244,b1281,b4245
GO:0005829	1.1454720794547796e-09	41	1032	cellular_component: cytosol	b0114,b3642,b0529,b3114,b0033,b2453,b0522,b3117,b2498,b1133,b4245,b3113,b2551,b2154,b1849,b0528,b4243,b2312,b2557,b0523,b1131,b4006,b2904,b3951,b3589,b0032,b2500,b0116,b0945,b1241,b0337,b2476,b1062,b0903,b0355,b0356,b2499,b1281,b0823,b2905,b2903
GO:0004022	7.160535967355133e-08	5	6	molecular_function: alcohol dehydrogenase (NAD) activity	b1241,b2453,b0356,b1478,b3589
GO:0019464	7.615551325801873e-07	4	4	biological_process: glycine decarboxylation via glycine cleavage system	b0116,b2905,b2903,b2904
GO:0070689	6.875487769077742e-06	4	7	biological_process: L-threonine catabolic process to propionate	b3115,b3114,b3113,b3117
GO:0006546	2.016354534050011e-05	3	3	biological_process: glycine catabolic process	b2905,b2903,b2551
GO:0046294	2.016354534050011e-05	3	3	biological_process: formaldehyde catabolic process	b0356,b0355,b2154
GO:0006567	2.7566242328932416e-05	4	10	biological_process: threonine catabolic process	b3115,b3114,b0903,b3117
GO:0019856	4.72202588587123e-05	3	4	biological_process: pyrimidine nucleobase biosynthetic process	b1062,b4246,b0033
GO:0003824	0.0001271386583074352	17	375	molecular_function: catalytic activity	b0114,b0529,b2551,b0945,b1241,b3952,b0824,b1131,b0903,b3117,b4006,b2498,b1281,b3951,b0823,b3114,b2903
GO:0005737	0.00013046247700098604	28	848	cellular_component: cytoplasm	b3642,b0033,b0824,b3953,b1133,b4245,b2551,b1132,b4243,b0357,b0512,b2312,b2557,b3952,b0115,b2904,b0032,b2500,b0945,b2873,b1062,b0903,b4244,b0356,b2499,b1281,b0116,b3114
GO:0006541	0.00013098549607546905	4	15	biological_process: glutamine metabolic process	b0032,b2557,b2312,b0033
GO:0016597	0.00013098549607546905	4	15	molecular_function: amino acid binding	b4245,b2551,b3117,b0033
GO:0046336	0.00016743253812963397	4	16	biological_process: ethanolamine catabolic process	b2455,b2456,b2453,b2454
GO:0042802	0.00020365931952983092	18	429	molecular_function: identical protein binding	b0114,b0523,b2551,b2154,b1241,b2873,b0337,b3117,b4245,b2456,b0356,b0904,b4243,b2498,b2312,b0116,b2903,b3113
GO:0006829	1.8070245766556634e-07	3	8	biological_process: zinc ion transport	b1859,b1858,b1857
GO:0034224	4.073957320987509e-06	2	2	biological_process: cellular response to zinc ion starvation	b1973,b0296
GO:0010043	2.540915298645503e-05	2	5	biological_process: response to zinc ion	b1859,b1858
GO:0071973	5.24156592832138e-41	27	33	biological_process: bacterial-type flagellum-dependent cell motility	b1082,b1077,b1079,b1938,b1944,b1923,b1942,b1078,b1072,b1946,b1081,b1194,b1926,b1941,b1074,b1925,b1939,b1924,b1083,b1945,b1076,b1943,b1080,b1940,b1073,b1890,b1937
GO:0009288	5.778672361042287e-40	25	25	cellular_component: bacterial-type flagellum	b1082,b1077,b1079,b1938,b1923,b1078,b1942,b1949,b1881,b1946,b1194,b1947,b1074,b1878,b1950,b1939,b1924,b1083,b1945,b1076,b1080,b1940,b1073,b1937,b1948
GO:0009425	1.4932634468856281e-28	18	18	cellular_component: bacterial-type flagellum basal body	b1945,b1949,b1076,b1947,b1074,b1077,b1079,b1080,b1938,b1946,b1950,b1194,b1073,b1939,b1078,b1944,b1937,b1948
GO:0006935	3.0712722989418536e-28	19	24	biological_process: chemotaxis	b1889,b1885,b1888,b1884,b1944,b1887,b1942,b1881,b1946,b1882,b4355,b1883,b1947,b1886,b1939,b3072,b1945,b1890,b1421
GO:0044781	1.3887528897028356e-24	16	18	biological_process: bacterial-type flagellum organization	b1071,b1947,b1943,b1941,b1072,b1070,b1075,b1081,b1878,b1879,b1925,b1940,b1948,b1926,b1880,b1942
GO:0097588	3.4134204816530794e-19	12	12	biological_process: archaeal or bacterial-type flagellum-dependent cell motility	b1945,b1947,b1881,b1889,b1080,b1946,b1079,b1890,b1939,b1882,b1944,b1937
GO:0044780	2.1177193281565526e-17	12	17	biological_process: bacterial-type flagellum assembly	b1949,b1943,b1941,b1082,b1072,b1070,b1925,b1081,b1879,b1950,b1939,b1880
GO:0009424	3.820234062257121e-16	10	10	cellular_component: bacterial-type flagellum hook	b1076,b1943,b1082,b1074,b1077,b1075,b1073,b1924,b1083,b1078
GO:0003774	4.001527511658443e-13	8	8	molecular_function: motor activity	b1945,b1946,b1079,b1938,b1940,b1939,b1937,b1942
GO:0071978	1.1584809609739314e-12	9	15	biological_process: bacterial-type flagellum-dependent swarming motility	b1076,b1881,b1074,b1077,b1075,b1073,b1890,b1944,b1078
GO:0098561	1.2687306524385334e-11	7	7	cellular_component: methyl accepting chemotaxis protein complex	b4355,b1881,b1886,b1888,b1884,b1421,b1887
GO:0007165	2.4379268317017763e-09	9	36	biological_process: signal transduction	b4355,b1883,b1885,b1886,b3210,b1888,b3072,b1421,b1887
GO:0004888	1.2412529357012038e-08	5	5	molecular_function: transmembrane signaling receptor activity	b4355,b1885,b1886,b3072,b1421
GO:1902021	3.0552749645488735e-08	5	6	biological_process: regulation of bacterial-type flagellum-dependent cell motility	b3525,b4355,b1921,b1888,b1882
GO:0050920	3.868385581175587e-07	4	4	biological_process: regulation of chemotaxis	b4355,b1886,b1881,b1888
GO:0005198	1.937405807771992e-06	5	14	molecular_function: structural molecule activity	b1082,b1080,b1923,b1937,b1083
GO:1901875	1.2181715058843846e-05	3	3	biological_process: positive regulation of post-translational protein modification	b1886,b1887,b1888
GO:0009306	3.9224901133841465e-05	4	13	biological_process: protein secretion	b1948,b1949,b1880,b1879
GO:0005576	3.9224901133841465e-05	4	13	cellular_component: extracellular region	b1082,b1923,b1924,b1083
GO:0023014	0.00011473769011441617	5	33	biological_process: signal transduction by protein phosphorylation	b1883,b3210,b1888,b1882,b1887
GO:0015031	0.00039590309802881696	6	67	biological_process: protein transport	b1941,b1948,b1879,b1940,b1880,b1942
GO:0030694	0.00039651601374735056	2	2	cellular_component: bacterial-type flagellum basal body, rod	b1074,b1073
GO:0009454	0.00039651601374735056	2	2	biological_process: aerotaxis	b1887,b1882
GO:0007172	0.00039651601374735056	2	2	biological_process: signal complex assembly	b4355,b1886
GO:0051286	0.00039651601374735056	2	2	cellular_component: cell tip	b1886,b1887
GO:0008652	2.2393194045384486e-29	26	100	biological_process: cellular amino acid biosynthetic process	b3213,b2023,b2022,b4054,b2025,b3772,b3671,b2026,b2019,b3771,b3744,b3770,b2024,b0078,b2021,b3769,b3212,b3670,b1261,b1262,b1263,b0674,b1260,b0077,b1264,b2020
GO:0000105	2.2176864452658746e-13	8	9	biological_process: histidine biosynthetic process	b2026,b2021,b2023,b2019,b2022,b2020,b2025,b2024
GO:0009099	1.0850300370613928e-12	8	11	biological_process: valine biosynthetic process	b0078,b3769,b3572,b0077,b3670,b3771,b3770,b3671
GO:0009097	2.1573452427850904e-12	8	12	biological_process: isoleucine biosynthetic process	b0078,b3769,b0077,b3670,b3771,b3770,b3772,b3671
GO:0000162	8.56839402487891e-12	7	8	biological_process: tryptophan biosynthetic process	b1262,b1263,b3360,b1260,b1264,b1261,b2024
GO:0009082	5.243923448739188e-11	8	18	biological_process: branched-chain amino acid biosynthetic process	b0078,b3769,b0077,b3670,b3771,b3770,b3772,b3671
GO:0003824	2.8443020938516133e-09	20	375	molecular_function: catalytic activity	b0928,b2022,b4054,b2025,b3772,b3671,b2026,b3572,b3771,b3770,b2147,b2024,b2021,b3212,b2290,b1262,b1263,b1260,b0077,b1264
GO:0003984	4.938991052774854e-09	5	5	molecular_function: acetolactate synthase activity	b0078,b3769,b0077,b3670,b3671
GO:0009073	8.525540173346745e-08	6	18	biological_process: aromatic amino acid family biosynthetic process	b1262,b1263,b1260,b1264,b1261,b4054
GO:0008483	2.742082831860242e-07	6	22	molecular_function: transaminase activity	b2021,b3572,b2290,b0928,b3770,b4054
GO:0006537	9.27692048939859e-07	4	6	biological_process: glutamate biosynthetic process	b3213,b2878,b3212,b1761
GO:0006541	1.0979077955786066e-06	5	15	biological_process: glutamine metabolic process	b1263,b0674,b3360,b3212,b2023
GO:0009058	1.67883443109422e-06	7	48	biological_process: biosynthetic process	b2021,b3572,b1812,b0928,b2290,b1264,b4054
GO:0030170	5.158364015893029e-06	7	57	molecular_function: pyridoxal phosphate binding	b2021,b3572,b2290,b0928,b1261,b4054,b3772
GO:0005948	1.6655488849598235e-05	3	4	cellular_component: acetolactate synthase complex	b0077,b3670,b3671
GO:0006568	1.6655488849598235e-05	3	4	biological_process: tryptophan metabolic process	b1262,b1260,b1261
GO:0006520	2.2163667243914354e-05	5	28	biological_process: cellular amino acid metabolic process	b1761,b2957,b0928,b4054,b3772
GO:0016829	2.6090947554045362e-05	10	169	molecular_function: lyase activity	b3772,b1262,b1263,b1260,b2023,b3771,b1264,b2022,b1261,b2025
GO:0051536	5.140942046235604e-05	9	146	molecular_function: iron-sulfur cluster binding	b2878,b2881,b2887,b3213,b3212,b2146,b3771,b2147,b2468
GO:1990610	0.00027722408721338724	2	2	molecular_function: acetolactate synthase regulator activity	b0078,b3670
GO:0004071	0.00027722408721338724	2	2	molecular_function: aspartate-ammonia ligase activity	b0674,b3744
GO:0070981	0.00027722408721338724	2	2	biological_process: L-asparagine biosynthetic process	b0674,b3744
GO:0006529	0.00027722408721338724	2	2	biological_process: asparagine biosynthetic process	b0674,b3744
GO:0033585	0.00027722408721338724	2	2	biological_process: L-phenylalanine biosynthetic process from chorismate via phenylpyruvate	b0928,b4054
GO:0004838	0.00027722408721338724	2	2	molecular_function: L-tyrosine:2-oxoglutarate aminotransferase activity	b0928,b4054
GO:0004834	0.00027722408721338724	2	2	molecular_function: tryptophan synthase activity	b1260,b1261
GO:0004049	0.00027722408721338724	2	2	molecular_function: anthranilate synthase activity	b1264,b1263
GO:0046820	0.00027722408721338724	2	2	molecular_function: 4-amino-4-deoxychorismate synthase activity	b3360,b1812
GO:0000107	0.00027722408721338724	2	2	molecular_function: imidazoleglycerol-phosphate synthase activity	b2025,b2023
GO:0009382	0.00027722408721338724	2	2	cellular_component: imidazoleglycerol-phosphate synthase complex	b2025,b2023
GO:0004159	0.00027722408721338724	2	2	molecular_function: dihydrouracil dehydrogenase (NAD+) activity	b2146,b2147
GO:0015930	0.00027722408721338724	2	2	molecular_function: glutamate synthase activity	b2878,b3212
GO:0004355	0.00027722408721338724	2	2	molecular_function: glutamate synthase (NADPH) activity	b3213,b3212
GO:0097054	0.00027722408721338724	2	2	biological_process: L-glutamate biosynthetic process	b3213,b3212
GO:0006532	0.00027722408721338724	2	2	biological_process: aspartate biosynthetic process	b3770,b4054
GO:0005737	0.0003370534211403714	21	848	cellular_component: cytoplasm	b2946,b2023,b1812,b0928,b2022,b4054,b2947,b2025,b1761,b2026,b3572,b2019,b0852,b3744,b2147,b2024,b2290,b1261,b0674,b1260,b2020
GO:0019676	0.0006190104313067371	2	3	biological_process: ammonia assimilation cycle	b2878,b3212
GO:0046872	0.0006419453418453548	18	692	molecular_function: metal ion binding	b2878,b2881,b2887,b3213,b3212,b2019,b0852,b3771,b0077,b2022,b2947,b1264,b2879,b2147,b1813,b2468,b2020,b3671
GO:0016740	0.0007210612318369813	16	576	molecular_function: transferase activity	b0078,b1263,b2021,b3360,b2946,b3769,b3572,b2019,b1812,b0928,b2290,b3670,b4054,b3770,b0077,b3671
GO:0043952	1.3461171679293208e-11	6	7	biological_process: protein transport by the Sec complex	b3609,b0408,b3981,b0409,b3175,b0098
GO:0006605	2.9846750938212734e-11	6	8	biological_process: protein targeting	b3609,b0408,b3981,b0409,b3464,b0098
GO:0006886	8.940632609552241e-10	5	6	biological_process: intracellular protein transport	b0408,b3981,b0409,b3175,b0098
GO:0006072	8.940632609552241e-10	5	6	biological_process: glycerol-3-phosphate metabolic process	b3608,b2241,b3926,b2242,b3426
GO:0065002	6.688196982511436e-09	5	9	biological_process: intracellular protein transmembrane transport	b0408,b3981,b0409,b3175,b0098
GO:0019563	6.688196982511436e-09	5	9	biological_process: glycerol catabolic process	b2243,b2241,b3926,b2242,b3426
GO:0015031	1.9737222042699968e-08	8	67	biological_process: protein transport	b0408,b3609,b3981,b0409,b3175,b0098,b3705,b0407
GO:0015450	2.3752265857330732e-08	4	4	molecular_function: P-P-bond-hydrolysis-driven protein transmembrane transporter activity	b0408,b0409,b3175,b3981
GO:0046168	2.3752265857330732e-08	4	4	biological_process: glycerol-3-phosphate catabolic process	b3608,b2241,b2242,b3426
GO:0009331	2.3752265857330732e-08	4	4	cellular_component: glycerol-3-phosphate dehydrogenase complex	b3608,b2241,b2242,b3426
GO:0031522	5.769932294276105e-08	4	5	cellular_component: cell envelope Sec protein transport complex	b3705,b3175,b0098,b3981
GO:0052591	1.5454061972170295e-06	3	3	molecular_function: sn-glycerol-3-phosphate:ubiquinone-8 oxidoreductase activity	b2241,b2242,b3426
GO:0052590	1.5454061972170295e-06	3	3	molecular_function: sn-glycerol-3-phosphate:ubiquinone oxidoreductase activity	b2241,b2242,b3426
GO:0004368	1.5454061972170295e-06	3	3	molecular_function: glycerol-3-phosphate dehydrogenase (quinone) activity	b2241,b2242,b3426
GO:0006071	2.5331948245772424e-06	4	13	biological_process: glycerol metabolic process	b2240,b2239,b3926,b3426
GO:0002099	0.00010188181694417261	2	2	biological_process: tRNA wobble guanine modification	b0405,b0406
GO:0015793	0.00010188181694417261	2	2	biological_process: glycerol transport	b2240,b3927
GO:0006614	0.00010188181694417261	2	2	biological_process: SRP-dependent cotranslational protein targeting to membrane	b3464,b2610
GO:0006612	0.00010188181694417261	2	2	biological_process: protein targeting to membrane	b3464,b2610
GO:0032977	0.00010188181694417261	2	2	molecular_function: membrane insertase activity	b3705,b4557
GO:0070678	0.00022820129542375402	2	3	molecular_function: preprotein binding	b3609,b0098
GO:0006616	0.00022820129542375402	2	3	biological_process: SRP-dependent cotranslational protein targeting to membrane, translocation	b3175,b3981
GO:0032978	0.0004038640677771935	2	4	biological_process: protein insertion into membrane from inner side	b3175,b3981
GO:0010124	1.6891205284681382e-21	12	15	biological_process: phenylacetate catabolic process	b1390,b1389,b1388,b3845,b1395,b1392,b1396,b1393,b1398,b1391,b1394,b1397
GO:0006635	3.9887953570517907e-13	8	15	biological_process: fatty acid beta-oxidation	b3846,b3845,b0221,b2342,b1393,b2341,b1394,b1397
GO:0004300	3.3090678520419394e-09	5	7	molecular_function: enoyl-CoA hydratase activity	b3846,b2342,b1393,b2341,b1394
GO:0006631	6.213008020197935e-09	7	32	biological_process: fatty acid metabolic process	b3846,b3845,b0221,b1395,b2342,b1393,b2341
GO:0003857	3.641012871712386e-08	4	4	molecular_function: 3-hydroxyacyl-CoA dehydrogenase activity	b2341,b3846,b1395,b2342
GO:0016042	2.0018559107739838e-06	4	11	biological_process: lipid catabolic process	b2341,b3846,b3845,b2342
GO:0047780	2.1167258038605877e-06	3	3	molecular_function: citrate dehydratase activity	b0118,b1276,b0334
GO:0006099	3.5658883152208093e-06	5	29	biological_process: tricarboxylic acid cycle	b0720,b1276,b0334,b0118,b0333
GO:0003994	4.990039488953277e-06	3	4	molecular_function: aconitate hydratase activity	b0118,b1276,b0334
GO:0003988	9.692985634551459e-06	3	5	molecular_function: acetyl-CoA C-acyltransferase activity	b3845,b2342,b1397
GO:0071705	1.1040416163586076e-05	4	17	biological_process: nitrogen compound transport	b2310,b2309,b2307,b2308
GO:0006629	2.5092974503501274e-05	6	74	biological_process: lipid metabolic process	b3846,b3845,b0221,b2342,b1393,b2341
GO:0004108	0.0001252002823424952	2	2	molecular_function: citrate (Si)-synthase activity	b0720,b0333
GO:0050218	0.0001252002823424952	2	2	molecular_function: propionate-CoA ligase activity	b4069,b0335
GO:0005291	0.0001252002823424952	2	2	molecular_function: high-affinity L-histidine transmembrane transporter activity	b2306,b2308
GO:1903810	0.0001252002823424952	2	2	biological_process: L-histidine import across plasma membrane	b2306,b2308
GO:0089709	0.0001252002823424952	2	2	biological_process: L-histidine transmembrane transport	b2306,b2308
GO:0016509	0.0001252002823424952	2	2	molecular_function: long-chain-3-hydroxyacyl-CoA dehydrogenase activity	b2341,b3846
GO:0008692	0.0001252002823424952	2	2	molecular_function: 3-hydroxybutyryl-CoA epimerase activity	b2341,b3846
GO:0046912	0.00028028561565523184	2	3	molecular_function: transferase activity, transferring acyl groups, acyl groups converted into alkyl on transfer	b0720,b0333
GO:0003730	0.00028028561565523184	2	3	molecular_function: mRNA 3'-UTR binding	b1276,b0118
GO:0019679	0.00028028561565523184	2	3	biological_process: propionate metabolic process, methylcitrate cycle	b0333,b0334
GO:0016829	0.00033273108613496267	7	169	molecular_function: lyase activity	b3846,b1276,b1393,b0334,b0118,b2341,b1394
GO:0019629	0.0004957836794647441	2	4	biological_process: propionate catabolic process, 2-methylcitrate cycle	b0335,b0118
GO:0046336	5.273848942198839e-15	6	16	biological_process: ethanolamine catabolic process	b2459,b2458,b2457,b2462,b2460,b2461
GO:0031471	1.6273175055042414e-05	2	4	cellular_component: ethanolamine degradation polyhedral organelle	b2462,b2457
GO:0043165	5.805934225527733e-14	11	13	biological_process: Gram-negative-bacterium-type cell outer membrane assembly	b0641,b3200,b0053,b0177,b2617,b0054,b2595,b0178,b2477,b3199,b2512
GO:0004812	2.8493957448615814e-12	12	25	molecular_function: aminoacyl-tRNA ligase activity	b0526,b0026,b1876,b1719,b2697,b4129,b2400,b1713,b2890,b0642,b1714,b2514
GO:1990351	8.075917904405155e-10	7	7	cellular_component: transporter complex	b4262,b4261,b3200,b0054,b3201,b3199,b0641
GO:0016874	2.3896182023893667e-09	16	94	molecular_function: ligase activity	b0526,b0026,b1876,b1714,b2780,b4475,b1719,b3421,b2507,b2890,b2400,b1713,b4129,b0642,b2697,b2514
GO:0015920	4.499703474979754e-09	7	9	biological_process: lipopolysaccharide transport	b4262,b4261,b3200,b0054,b3201,b3199,b0641
GO:0006418	2.5465051067650182e-08	8	18	biological_process: tRNA aminoacylation for protein translation	b0526,b0026,b1876,b1719,b2400,b2890,b4129,b0642
GO:0000049	3.177115786327573e-08	11	46	molecular_function: tRNA binding	b0026,b2474,b3282,b1719,b2697,b2400,b4129,b1713,b2890,b3166,b1714
GO:0006412	9.888670891744705e-08	15	107	biological_process: translation	b0526,b0026,b3287,b1876,b3288,b1714,b2891,b1719,b2400,b1713,b2890,b4129,b0642,b2697,b2514
GO:1990063	2.3127003503131978e-07	5	5	cellular_component: Bam protein complex	b0177,b2617,b2595,b2477,b2512
GO:0051205	1.1946612579025675e-06	5	7	biological_process: protein insertion into membrane	b0177,b2617,b2595,b2477,b2512
GO:0005829	1.7527894004716516e-05	46	1032	cellular_component: cytosol	b2593,b0051,b0912,b2891,b1719,b2507,b2400,b3167,b0238,b2478,b1714,b3180,b3198,b1876,b3282,b0174,b0179,b4129,b1713,b3289,b0121,b2594,b3287,b2508,b0469,b2959,b1778,b0178,b2890,b1712,b0125,b0526,b0026,b3179,b3288,b0104,b3290,b3281,b2780,b0844,b3166,b0642,b0120,b2697,b2514,b3203
GO:0043039	3.4964486295884955e-05	4	7	biological_process: tRNA aminoacylation	b1714,b2400,b2697,b1719
GO:0048473	6.886791994438388e-05	3	3	biological_process: D-methionine transport	b0197,b0199,b0198
GO:0006364	6.937392171571841e-05	7	39	biological_process: rRNA processing	b0051,b2594,b3179,b3282,b1835,b3167,b3289
GO:0002161	9.188763112499215e-05	4	9	molecular_function: aminoacyl-tRNA editing activity	b2697,b0642,b0026,b1719
GO:0106074	9.188763112499215e-05	4	9	biological_process: aminoacyl-tRNA metabolism involved in translational fidelity	b2697,b0642,b0026,b1719
GO:0044877	0.0001602484632744916	3	4	molecular_function: protein-containing complex binding	b2513,b2782,b2783
GO:0001530	0.0001602484632744916	3	4	molecular_function: lipopolysaccharide binding	b0178,b3200,b0641
GO:0015437	0.0001602484632744916	3	4	molecular_function: lipopolysaccharide-transporting ATPase activity	b3201,b4262,b4261
GO:0000166	0.00018017567936014133	27	517	molecular_function: nucleotide binding	b4475,b1719,b2507,b2400,b1714,b1876,b3282,b4129,b1713,b1804,b2508,b0199,b3421,b2890,b0025,b0125,b0526,b0026,b2474,b3281,b2780,b2781,b0639,b3201,b0642,b2697,b2514
GO:0006417	0.0004835477051963233	5	25	biological_process: regulation of translation	b2782,b0912,b1719,b1712,b3203
GO:0001510	0.0005212122845979132	3	6	biological_process: RNA methylation	b1835,b3289,b3179
GO:0016226	1.2249437104572192e-13	7	19	biological_process: iron-sulfur cluster assembly	b3807,b2524,b2525,b2529,b2530,b2528,b2526
GO:0051537	5.732392658934754e-08	5	33	molecular_function: 2 iron, 2 sulfur cluster binding	b2525,b2529,b2530,b2528,b2531
GO:0019285	3.219971460081336e-07	3	4	biological_process: glycine betaine biosynthetic process from choline	b0312,b0311,b0313
GO:0005506	7.093212171021155e-07	5	55	molecular_function: iron ion binding	b3807,b2524,b2529,b2528,b2531
GO:0008198	1.0483062827920594e-06	4	24	molecular_function: ferrous iron binding	b3807,b2524,b2529,b2528
GO:0097428	1.0824964049562908e-06	3	6	biological_process: protein maturation by iron-sulfur cluster transfer	b2526,b2527,b2528
GO:0008802	2.113309004857981e-05	2	2	molecular_function: betaine-aldehyde dehydrogenase activity	b0311,b0312
GO:1990230	2.113309004857981e-05	2	2	cellular_component: iron-sulfur cluster transfer complex	b2526,b2527
GO:0044571	2.113309004857981e-05	2	2	biological_process: [2Fe-2S] cluster assembly	b2527,b2530
GO:0005829	2.3737888476571008e-05	11	1032	cellular_component: cytosol	b3807,b3895,b2527,b2524,b2525,b2529,b0312,b2530,b2528,b2526,b2531
GO:0006970	2.854885490046893e-05	3	18	biological_process: response to osmotic stress	b0311,b0313,b0312
GO:0051536	7.959437118274942e-05	5	146	molecular_function: iron-sulfur cluster binding	b2525,b2529,b2530,b2528,b2531
GO:0097163	0.0002564174632866434	2	7	molecular_function: sulfur carrier activity	b3895,b2530
GO:0051539	3.0046036070992617e-06	5	117	molecular_function: 4 iron, 4 sulfur cluster binding	b4079,b2719,b2721,b2720,b2724
GO:0008137	7.172277904116287e-06	3	17	molecular_function: NADH dehydrogenase (ubiquinone) activity	b2719,b2723,b2721
GO:0055114	8.616356909287954e-06	7	448	biological_process: oxidation-reduction process	b2722,b4079,b2719,b2723,b2721,b2720,b2724
GO:0051536	8.858955546750033e-06	5	146	molecular_function: iron-sulfur cluster binding	b4079,b2719,b2721,b2720,b2724
GO:0051604	6.66054794925865e-15	8	16	biological_process: protein maturation	b2728,b2991,b2730,b2727,b2990,b2726,b2992,b2729
GO:0033748	1.0702963382345249e-10	5	6	molecular_function: hydrogenase (acceptor) activity	b0972,b2997,b0973,b2994,b2995
GO:0008901	4.53028535922276e-09	4	4	molecular_function: ferredoxin hydrogenase activity	b0972,b0973,b2997,b2994
GO:0044569	5.002697378530613e-09	5	13	cellular_component: [Ni-Fe] hydrogenase complex	b2995,b0974,b2997,b0973,b0972
GO:0016151	2.5074373878746125e-08	5	18	molecular_function: nickel cation binding	b2991,b2727,b0973,b2994,b2726
GO:0006464	4.220543062206968e-08	5	20	biological_process: cellular protein modification process	b2993,b2991,b0975,b2726,b2729
GO:0046872	1.947336939014556e-06	13	692	molecular_function: metal ion binding	b2996,b2993,b2991,b0972,b0974,b2727,b2997,b0975,b0973,b2994,b2726,b2995,b2729
GO:0009061	3.4096122728809367e-06	5	49	biological_process: anaerobic respiration	b2995,b0974,b2997,b0973,b0972
GO:0006113	8.578792178165155e-06	3	8	biological_process: fermentation	b0974,b0973,b0972
GO:0009375	4.623372932314902e-05	2	2	cellular_component: ferredoxin hydrogenase complex	b0972,b2997
GO:1902670	4.623372932314902e-05	2	2	molecular_function: carbon dioxide binding	b2990,b2728
GO:0031236	0.00010371905731306007	2	3	cellular_component: extrinsic component of periplasmic side of plasma membrane	b2997,b2994
GO:0005506	0.00013799329970244533	4	55	molecular_function: iron ion binding	b2729,b0974,b2990,b2728
GO:0016485	0.0002864118411110447	2	5	biological_process: protein processing	b0975,b2993
GO:0019698	9.924849645249988e-07	3	7	biological_process: D-galacturonate catabolic process	b3092,b3091,b3128
GO:0006412	2.4633873379318138e-79	66	107	biological_process: translation	b3314,b3986,b0023,b3703,b3590,b3636,b3186,b3311,b3304,b4506,b3302,b3983,b2606,b3637,b3317,b3980,b3298,b3984,b3170,b3308,b3319,b0884,b3168,b3306,b4200,b3985,b3591,b3307,b1089,b3296,b3297,b3301,b3294,b1716,b3165,b3341,b3231,b4147,b3342,b2609,b3340,b3316,b3305,b3315,b3339,b2185,b0911,b3230,b4203,b3313,b3303,b3936,b1717,b3309,b3318,b3320,b3185,b4202,b3321,b0169,b3065,b1718,b3312,b3299,b0170,b3310
GO:0005840	7.47321796555512e-75	56	61	cellular_component: ribosome	b3314,b0023,b3986,b3703,b3186,b3636,b2608,b3304,b3311,b4506,b2606,b3302,b3983,b3637,b3317,b3298,b3984,b3308,b3319,b4200,b3306,b3985,b3307,b1089,b3296,b3297,b3301,b3294,b1716,b3165,b3231,b3341,b3342,b2609,b3305,b3316,b3315,b2185,b0911,b3230,b4203,b3313,b3303,b3936,b1717,b3309,b3318,b3320,b3185,b4202,b3321,b0169,b3065,b3312,b3299,b3310
GO:0003735	4.171289992065503e-74	55	58	molecular_function: structural constituent of ribosome	b3314,b0023,b3986,b3703,b3186,b3636,b3304,b3311,b4506,b2606,b3302,b3983,b3637,b3317,b3298,b3984,b3308,b3319,b4200,b3306,b3985,b3307,b1089,b3296,b3297,b3301,b3294,b1716,b3165,b3231,b3341,b3342,b2609,b3305,b3316,b3315,b2185,b3230,b0911,b4203,b3313,b3303,b3936,b1717,b3309,b3318,b3320,b3185,b4202,b3321,b0169,b3065,b3312,b3299,b3310
GO:0019843	1.9725071715196888e-53	44	59	molecular_function: rRNA binding	b3314,b0023,b3186,b2608,b3304,b3311,b2606,b3983,b3637,b3317,b3298,b3984,b3308,b0884,b3319,b4200,b3306,b3985,b3307,b3296,b3297,b3301,b1716,b3165,b3341,b3871,b3342,b3305,b3316,b3315,b2185,b2597,b4203,b3313,b3303,b3936,b3309,b3318,b3320,b3185,b4202,b3065,b3312,b3310
GO:0003723	1.052805986403878e-48	54	161	molecular_function: RNA binding	b3314,b0023,b3590,b3636,b2608,b3186,b3311,b3304,b3983,b2606,b3637,b3260,b3317,b3980,b3298,b3984,b3169,b3308,b3319,b0884,b4200,b3306,b3985,b3296,b3297,b3301,b1716,b3165,b3341,b3871,b3342,b3316,b3305,b3315,b3339,b0911,b3230,b2185,b3704,b2597,b4203,b3313,b3303,b3936,b3309,b3318,b3320,b3185,b4202,b3321,b3065,b1718,b3312,b3310
GO:0022625	3.6204827641496444e-42	32	32	cellular_component: cytosolic large ribosomal subunit	b3986,b3636,b3186,b3304,b2606,b3302,b3983,b3637,b3317,b3984,b3308,b3319,b3985,b1089,b3301,b3294,b1716,b3231,b3305,b3315,b2185,b4203,b3313,b3936,b1717,b3309,b3318,b3320,b3185,b3312,b3299,b3310
GO:0022627	1.0632539514204948e-27	22	25	cellular_component: cytosolic small ribosomal subunit	b3314,b0023,b3311,b3298,b4200,b3306,b3307,b3296,b3297,b3165,b3341,b3342,b2609,b3316,b0911,b3230,b2597,b3303,b4202,b3321,b0169,b3065
GO:0000027	6.736898307800358e-22	19	28	biological_process: ribosomal large subunit assembly	b3636,b3302,b2606,b3983,b3637,b3317,b3984,b3308,b1089,b3294,b1716,b3305,b2185,b3313,b3309,b3318,b3320,b3185,b3312
GO:0000028	2.7249540435724293e-21	17	20	biological_process: ribosomal small subunit assembly	b3314,b3165,b3303,b3341,b0023,b3306,b3296,b2609,b2608,b3307,b0169,b3311,b3065,b3316,b3297,b0911,b3170
GO:0005829	1.6141477258451679e-19	68	1032	cellular_component: cytosol	b3314,b3986,b0023,b3987,b3590,b3636,b2608,b3186,b2607,b3357,b3988,b3304,b2606,b3983,b3637,b0474,b2171,b3317,b3298,b3984,b0436,b3169,b3308,b3980,b3170,b3319,b3168,b3306,b0884,b0171,b4200,b3985,b3591,b1089,b3261,b3297,b3296,b3294,b1716,b3165,b3341,b3231,b3067,b0910,b4147,b3342,b3340,b1274,b3295,b3316,b3305,b3315,b4059,b2185,b3230,b2597,b4203,b3303,b3936,b3309,b3320,b4202,b3321,b3065,b1718,b1088,b0170,b3310
GO:0015934	1.1576217606133996e-18	14	14	cellular_component: large ribosomal subunit	b3984,b3319,b3986,b1717,b3985,b3636,b3310,b1089,b3302,b3315,b3983,b3301,b3317,b3294
GO:0015935	3.788405753798908e-16	12	12	cellular_component: small ribosomal subunit	b3298,b3303,b3341,b0023,b3342,b2609,b3307,b3321,b0169,b3316,b3296,b3230
GO:0000049	6.848077019944802e-13	15	46	molecular_function: tRNA binding	b3298,b3984,b3313,b3308,b3341,b3871,b3342,b3636,b3590,b3185,b3321,b3316,b3230,b3260,b3704
GO:0070180	2.115591898036851e-12	9	9	molecular_function: large ribosomal subunit rRNA binding	b4203,b1716,b3231,b3309,b3985,b3305,b2606,b3983,b3310
GO:0003746	1.6177236273560503e-09	7	8	molecular_function: translation elongation factor activity	b4147,b3590,b3340,b3339,b0170,b2171,b3980
GO:0043022	2.4729442646210543e-09	10	28	molecular_function: ribosome binding	b0436,b0884,b3986,b4147,b3985,b3185,b2608,b1718,b1203,b2597
GO:0005515	2.7983412249711323e-09	54	1066	molecular_function: protein binding	b4201,b3986,b3300,b3987,b3590,b3357,b2608,b3988,b3983,b3637,b0474,b3317,b3980,b3298,b3984,b0436,b3169,b3170,b3319,b0884,b3168,b4200,b3985,b3591,b1089,b3296,b3297,b3301,b3341,b3067,b3871,b3342,b3734,b3295,b1274,b1203,b3315,b3339,b4059,b2597,b4203,b3303,b3309,b3318,b3320,b3185,b4202,b3321,b0169,b1718,b3261,b0170,b3310,b3732
GO:0070181	2.7966443076552663e-08	6	7	molecular_function: small ribosomal subunit rRNA binding	b3165,b0023,b4200,b4202,b3311,b3297
GO:0006414	2.7966443076552663e-08	6	7	biological_process: translational elongation	b4147,b3340,b3339,b0170,b2171,b3980
GO:0003924	3.2122011470138055e-07	8	26	molecular_function: GTPase activity	b3986,b3168,b3871,b3985,b3590,b3340,b3339,b3980
GO:0017148	1.5576484000249449e-06	6	14	biological_process: negative regulation of translation	b1716,b3319,b3341,b3231,b3985,b2185
GO:0006417	3.3485813917234262e-06	7	25	biological_process: regulation of translation	b3984,b3165,b3319,b3306,b3985,b3296,b2597
GO:0046677	8.000924124604913e-06	12	101	biological_process: response to antibiotic	b3319,b3303,b3987,b3342,b3636,b3311,b3988,b3305,b3315,b3339,b3296,b3980
GO:0006413	1.702454213869059e-05	4	6	biological_process: translational initiation	b3168,b1718,b0884,b3936
GO:0048027	1.702454213869059e-05	4	6	molecular_function: mRNA 5'-UTR binding	b4200,b3296,b3297,b4202
GO:0003729	2.012369405709353e-05	5	13	molecular_function: mRNA binding	b1716,b3314,b3341,b3231,b0911
GO:0046961	5.180954444908736e-05	4	8	molecular_function: proton-transporting ATPase activity, rotational mechanism	b3734,b3736,b3735,b3732
GO:0008097	6.278330267983314e-05	3	3	molecular_function: 5S rRNA binding	b3304,b2185,b3308
GO:1990145	6.278330267983314e-05	3	3	biological_process: maintenance of translational fidelity	b3342,b3296,b3303
GO:0006754	8.143611292475063e-05	4	9	biological_process: ATP biosynthetic process	b3734,b3736,b3735,b3732
GO:0046933	8.143611292475063e-05	4	9	molecular_function: proton-transporting ATP synthase activity, rotational mechanism	b3734,b3736,b3735,b3732
GO:0015986	8.143611292475063e-05	4	9	biological_process: ATP synthesis coupled proton transport	b3734,b3736,b3735,b3732
GO:0042254	0.00011942371972209634	5	19	biological_process: ribosome biogenesis	b3871,b3985,b2608,b1088,b3170
GO:0003743	0.00014617525192393634	3	4	molecular_function: translation initiation factor activity	b3168,b1718,b0884
GO:0046940	0.00028043053650707534	3	5	biological_process: nucleoside monophosphate phosphorylation	b0910,b0171,b0474
GO:0006353	0.00047599065916749606	3	6	biological_process: DNA-templated transcription, termination	b3296,b3169,b3319
GO:0045261	0.00047599065916749606	3	6	cellular_component: proton-transporting ATP synthase complex, catalytic core F(1)	b3734,b3735,b3732
GO:0005525	0.0006265413947866272	7	58	molecular_function: GTP binding	b3168,b3871,b3590,b3340,b1203,b3339,b3980
GO:0045947	0.0007424653863472062	3	7	biological_process: negative regulation of translational initiation	b3984,b3296,b2597
GO:0003899	0.0007424653863472062	3	7	molecular_function: DNA-directed 5'-3' RNA polymerase activity	b3987,b3295,b3988
GO:0009242	1.3607826321162086e-21	11	19	biological_process: colanic acid biosynthetic process	b2057,b2054,b2060,b2050,b2049,b2052,b2061,b2059,b2055,b2053,b2058
GO:0009103	2.8789769691790035e-15	11	72	biological_process: lipopolysaccharide biosynthetic process	b2057,b2054,b2060,b2056,b2050,b2049,b2059,b2048,b2055,b2051,b2058
GO:0045228	2.5438230043721306e-14	7	10	biological_process: slime layer polysaccharide biosynthetic process	b2057,b2054,b2056,b2050,b2059,b2055,b2058
GO:0000271	2.0057260213239177e-07	4	11	biological_process: polysaccharide biosynthetic process	b2062,b2061,b2049,b2060
GO:0004615	4.138139823494395e-05	2	2	molecular_function: phosphomannomutase activity	b2048,b3176
GO:0042351	4.138139823494395e-05	2	2	biological_process: 'de novo' GDP-L-fucose biosynthetic process	b2052,b2053
GO:0071704	9.284963346887365e-05	2	3	biological_process: organic substance metabolic process	b2048,b3176
GO:0016413	9.284963346887365e-05	2	3	molecular_function: O-acetyltransferase activity	b2058,b2054
GO:0046377	9.284963346887365e-05	2	3	biological_process: colanic acid metabolic process	b2062,b2056
GO:0009298	9.284963346887365e-05	2	3	biological_process: GDP-mannose biosynthetic process	b2048,b2049
GO:0036065	0.00016460778342236026	2	4	biological_process: fucosylation	b2050,b2055
GO:0070401	0.0002564857720503952	2	5	molecular_function: NADP+ binding	b2052,b2053
GO:0015627	8.905214629594693e-23	10	12	cellular_component: type II protein secretion system complex	b3334,b3333,b3328,b3326,b3327,b3324,b3329,b3331,b3330,b3325
GO:0015628	4.152275928941432e-22	10	14	biological_process: protein secretion by the type II secretion system	b3334,b3333,b3328,b3326,b3327,b3324,b3329,b3331,b3330,b3325
GO:0015031	1.60499361049075e-17	11	67	biological_process: protein transport	b3332,b3334,b3333,b3328,b3326,b3327,b3324,b3329,b3331,b3330,b3325
GO:0016021	1.762654988985567e-07	13	966	cellular_component: integral component of membrane	b3332,b3334,b3323,b3333,b3328,b3329,b3327,b3324,b3335,b3331,b3330,b3325,b3322
GO:0016020	2.617055657847966e-07	14	1299	cellular_component: membrane	b3332,b3334,b3323,b3333,b3328,b3326,b3327,b3324,b3335,b3331,b3329,b3330,b3325,b3322
GO:0005886	1.4185773534578414e-06	13	1139	cellular_component: plasma membrane	b3332,b3334,b3323,b3333,b3328,b3326,b3327,b3324,b3335,b3331,b3329,b3330,b3322
GO:0009306	1.3787474096747565e-05	3	13	biological_process: protein secretion	b3327,b3325,b3332
GO:0015976	1.941496376616965e-13	5	11	biological_process: carbon utilization	b3393,b3395,b3392,b3394,b3391
GO:0006308	1.941496376616965e-13	5	11	biological_process: DNA catabolic process	b3393,b3395,b3392,b3394,b3391
GO:0009246	2.3220324121020346e-22	11	13	biological_process: enterobacterial common antigen biosynthetic process	b3792,b3789,b3784,b3787,b3786,b3793,b3794,b3788,b3790,b3785,b3791
GO:0009103	6.365483221329173e-18	13	72	biological_process: lipopolysaccharide biosynthetic process	b2036,b2033,b2038,b3784,b2037,b2041,b2039,b2032,b3788,b2040,b3785,b2034,b2035
GO:0009243	7.799861797723459e-13	6	6	biological_process: O antigen biosynthetic process	b2038,b3784,b2037,b2041,b2039,b2040
GO:0045226	4.892359942782914e-11	6	12	biological_process: extracellular polysaccharide biosynthetic process	b2038,b3789,b2041,b2039,b3788,b2040
GO:0019305	6.9836307159996455e-09	4	4	biological_process: dTDP-rhamnose biosynthetic process	b2038,b2039,b2040,b2041
GO:0000271	3.0193901887752157e-05	3	11	biological_process: polysaccharide biosynthetic process	b3791,b3789,b3787
GO:0008879	5.673882023088496e-05	2	2	molecular_function: glucose-1-phosphate thymidylyltransferase activity	b2039,b3789
GO:0008460	5.673882023088496e-05	2	2	molecular_function: dTDP-glucose 4,6-dehydratase activity	b2041,b3788
GO:0009225	0.00012724161271511492	2	3	biological_process: nucleotide-sugar metabolic process	b2041,b3788
GO:0048476	2.422176655085611e-10	5	5	cellular_component: Holliday junction resolvase complex	b1861,b1860,b2894,b1863,b3811
GO:0006310	2.079676851938599e-08	9	107	biological_process: DNA recombination	b1861,b1860,b2894,b3822,b1863,b3811,b2892,b3652,b0962
GO:0004386	3.0765087699981035e-08	6	28	molecular_function: helicase activity	b1861,b1860,b3162,b3822,b3652,b0962
GO:0003678	5.623101792637455e-08	5	15	molecular_function: DNA helicase activity	b1861,b1860,b3822,b3652,b0962
GO:0032508	7.729207324118599e-08	5	16	biological_process: DNA duplex unwinding	b1861,b1860,b3822,b3652,b0962
GO:0000725	6.601552887652491e-07	4	10	biological_process: recombinational repair	b1861,b1860,b1863,b0962
GO:0006281	7.975790388900985e-07	7	80	biological_process: DNA repair	b1861,b1860,b3822,b1863,b2892,b3652,b0962
GO:0009378	1.227951988281441e-06	3	3	molecular_function: four-way junction helicase activity	b1861,b1860,b3822
GO:0009314	1.9715339061205954e-05	5	50	biological_process: response to radiation	b1861,b2894,b3162,b1863,b3652
GO:0003676	2.410531917770069e-05	6	89	molecular_function: nucleic acid binding	b3162,b3822,b1863,b2892,b3652,b1866
GO:0016787	2.4244733384779352e-05	12	477	molecular_function: hydrolase activity	b1861,b1860,b3812,b3162,b3822,b1863,b3650,b3183,b2892,b3652,b1865,b0962
GO:0046688	7.54731371829884e-05	3	12	biological_process: response to copper ion	b4137,b2893,b4136
GO:0009379	8.76576774868047e-05	2	2	cellular_component: Holliday junction helicase complex	b1861,b3652
GO:0009037	8.76576774868047e-05	2	2	molecular_function: tyrosine-based site-specific recombinase activity	b2894,b3811
GO:0071139	8.76576774868047e-05	2	2	biological_process: resolution of recombination intermediates	b2894,b3811
GO:0007059	0.00011877652879374972	3	14	biological_process: chromosome segregation	b2894,b3183,b3811
GO:0009009	0.000196409296248256	2	3	molecular_function: site-specific recombinase activity	b2894,b3811
GO:0003677	0.00019997631465724908	11	496	molecular_function: DNA binding	b1861,b1860,b4135,b2894,b1864,b3649,b3822,b3183,b3811,b3652,b0962
GO:0005737	0.0004116820204675533	14	848	cellular_component: cytoplasm	b1861,b1860,b2894,b3648,b1864,b3162,b3822,b1863,b3183,b3650,b4137,b3809,b1866,b3811
GO:0009408	1.4287291336885104e-17	16	55	biological_process: response to heat	b2592,b3932,b3401,b4143,b0437,b3686,b3687,b3931,b3400,b0015,b0473,b0881,b0439,b0014,b4142,b2614
GO:0009086	9.253860817666383e-15	10	15	biological_process: methionine biosynthetic process	b0260,b3940,b4013,b3433,b0261,b4019,b3829,b3828,b3941,b3939
GO:0051082	2.5246781147196105e-13	10	21	molecular_function: unfolded protein binding	b4143,b3401,b1000,b0438,b0492,b0015,b0473,b0014,b4142,b2614
GO:0008652	3.497069270241981e-11	14	100	biological_process: cellular amino acid biosynthetic process	b0004,b3940,b3433,b4013,b2319,b4019,b0261,b3829,b0002,b0003,b3828,b4024,b3941,b3939
GO:0006457	7.121666187085622e-11	9	26	biological_process: protein folding	b4143,b3401,b1000,b0438,b0015,b0473,b0014,b4142,b2614
GO:0042026	2.748200074483059e-09	6	9	biological_process: protein refolding	b2592,b4143,b3401,b0492,b1000,b0015
GO:0004176	2.748200074483059e-09	6	9	molecular_function: ATP-dependent peptidase activity	b3932,b0437,b0882,b3931,b0438,b0439
GO:0051087	5.119465310885982e-09	6	10	molecular_function: chaperone binding	b0015,b0473,b0881,b0014,b4142,b2614
GO:0051085	8.418126446478652e-09	5	5	biological_process: chaperone cofactor-dependent protein refolding	b4143,b1000,b0015,b0014,b4142
GO:0009088	2.07387297983075e-08	5	6	biological_process: threonine biosynthetic process	b0004,b3940,b3433,b0002,b0003
GO:0005829	9.057947668554532e-08	32	1032	cellular_component: cytosol	b2745,b3401,b0882,b0003,b3400,b0014,b2614,b2592,b0004,b3687,b4142,b4024,b3259,b4143,b2319,b4019,b0437,b3829,b3931,b2320,b0015,b0473,b3941,b0439,b2747,b3940,b3932,b3433,b2942,b0438,b0492,b3399
GO:0009090	2.8439324270664674e-07	4	4	biological_process: homoserine biosynthetic process	b4024,b3433,b0002,b3940
GO:0005737	3.594862286235113e-07	28	848	cellular_component: cytoplasm	b3401,b0882,b0003,b3828,b0014,b2743,b2614,b2592,b3687,b4142,b3939,b4024,b3259,b4143,b0437,b4019,b3931,b1000,b2320,b0015,b0473,b0439,b3940,b3932,b4013,b2942,b3686,b2744
GO:0009376	6.875511788626396e-07	4	5	cellular_component: HslUV protease complex	b3932,b3931,b0437,b0438
GO:0030163	4.375494498484678e-06	4	8	biological_process: protein catabolic process	b0439,b3932,b0881,b0438
GO:0004072	9.692368116761277e-06	3	3	molecular_function: aspartate kinase activity	b4024,b0002,b3940
GO:0034605	1.0475294778561489e-05	4	10	biological_process: cellular response to heat	b2592,b3400,b0882,b0439
GO:0009089	2.1300694471767588e-05	4	12	biological_process: lysine biosynthetic process via diaminopimelate	b4024,b3940,b3433,b0002
GO:0043335	2.2760158973683005e-05	3	4	biological_process: protein unfolding	b0882,b3931,b0438
GO:0046983	3.869786071795795e-05	4	14	molecular_function: protein dimerization activity	b2320,b3433,b0438,b2319
GO:0065003	4.4038877691428536e-05	3	5	biological_process: protein-containing complex assembly	b0014,b0015,b2614
GO:0044183	4.4038877691428536e-05	3	5	molecular_function: protein binding involved in protein folding	b0014,b0473,b3401
GO:0035999	7.538980715470061e-05	3	6	biological_process: tetrahydrofolate interconversion	b4019,b3829,b3941
GO:0016887	0.0001238352322935472	8	114	molecular_function: ATPase activity	b2592,b4143,b0882,b3931,b0438,b0473,b0439,b0014
GO:0005524	0.00012606600128204428	16	441	molecular_function: ATP binding	b2592,b3940,b3932,b4143,b2942,b0882,b3931,b0002,b0438,b0003,b0015,b0473,b0439,b0014,b4142,b4024
GO:0005515	0.00013216068555915687	27	1066	molecular_function: protein binding	b3401,b0882,b3400,b0881,b0014,b2614,b2592,b3687,b2746,b4142,b2748,b3259,b4143,b2319,b0437,b3829,b3931,b1000,b0015,b0473,b0999,b0439,b3932,b2942,b3686,b0438,b0492
GO:0042802	0.00033025632708687074	15	429	molecular_function: identical protein binding	b2592,b3932,b3401,b4143,b0437,b2942,b3686,b3687,b3931,b0438,b0473,b2746,b2747,b4142,b2748
GO:0009067	0.00034091586490219973	2	2	biological_process: aspartate family amino acid biosynthetic process	b3940,b0002
GO:0004412	0.00034091586490219973	2	2	molecular_function: homoserine dehydrogenase activity	b3940,b0002
GO:0006986	0.00034091586490219973	2	2	biological_process: response to unfolded protein	b2592,b0882
GO:0036506	0.00034091586490219973	2	2	biological_process: maintenance of unfolded protein	b0492,b3401
GO:0050667	0.00034091586490219973	2	2	biological_process: homocysteine metabolic process	b4019,b3829
GO:0008705	0.00034091586490219973	2	2	molecular_function: methionine synthase activity	b4019,b3829
GO:1990220	0.00034091586490219973	2	2	cellular_component: GroEL-GroES complex	b4142,b4143
GO:0019068	0.00034091586490219973	2	2	biological_process: virion assembly	b4142,b4143
GO:0019904	0.00044332941797983646	3	11	molecular_function: protein domain specific binding	b3932,b3931,b2614
GO:0006520	0.0005400712883593074	4	28	biological_process: cellular amino acid metabolic process	b0004,b3940,b3433,b0002
GO:0006508	0.000548122315051374	7	108	biological_process: proteolysis	b3932,b0437,b0882,b3931,b0438,b0881,b0439
GO:0008706	8.398895383350104e-10	4	4	molecular_function: 6-phospho-beta-glucosidase activity	b2901,b3721,b1734,b2716
GO:0103047	8.398895383350104e-10	4	4	molecular_function: methyl beta-D-glucoside 6-phosphate glucohydrolase activity	b2901,b3721,b1734,b2716
GO:1902815	1.3610854201689897e-07	3	3	biological_process: N,N'-diacetylchitobiose import	b1737,b1736,b1738
GO:0008422	3.219971460081336e-07	3	4	molecular_function: beta-glucosidase activity	b2901,b3721,b2716
GO:0004553	1.2319274151997675e-06	4	25	molecular_function: hydrolase activity, hydrolyzing O-glycosyl compounds	b2901,b3721,b1734,b2716
GO:0016052	1.715604055744524e-06	3	7	biological_process: carbohydrate catabolic process	b2901,b3721,b2716
GO:0005975	5.6339356080634055e-06	6	154	biological_process: carbohydrate metabolic process	b1733,b2901,b3721,b2716,b4090,b1734
GO:0016798	7.848369927538085e-06	4	40	molecular_function: hydrolase activity, acting on glycosyl bonds	b2901,b3721,b1734,b2716
GO:0034219	9.503786407698932e-06	4	42	biological_process: carbohydrate transmembrane transport	b3722,b1737,b1736,b1738
GO:0090566	2.113309004857981e-05	2	2	molecular_function: protein-phosphocysteine-N,N'-diacetylchitobiose phosphotransferase system transporter activity	b1736,b1738
GO:0009401	3.133896371727261e-05	4	57	biological_process: phosphoenolpyruvate-dependent sugar phosphotransferase system	b3722,b1737,b1736,b1738
GO:0008982	0.0001290993541324777	3	30	molecular_function: protein-N(PI)-phosphohistidine-sugar phosphotransferase activity	b3722,b1737,b1738
GO:0061720	0.0001313263924208377	2	5	biological_process: 6-sulfoquinovose(1-) catabolic process to glycerone phosphate and 3-sulfolactaldehyde	b3881,b3882
GO:1902777	0.0001313263924208377	2	5	biological_process: 6-sulfoquinovose(1-) catabolic process	b3881,b3882
GO:0008643	0.00031766590418369717	4	104	biological_process: carbohydrate transport	b3722,b1737,b1736,b1738
GO:0006097	6.176406399205926e-09	4	8	biological_process: glyoxylate cycle	b4014,b2976,b4016,b4015
GO:0019154	7.861634976057186e-08	3	3	molecular_function: glycolate dehydrogenase activity	b2979,b4468,b4467
GO:0046296	6.259843807577015e-07	3	6	biological_process: glycolate catabolic process	b2979,b4468,b4467
GO:0006099	1.034217132347134e-06	4	29	biological_process: tricarboxylic acid cycle	b4014,b2976,b4016,b4015
GO:0004474	1.4911900757922708e-05	2	2	molecular_function: malate synthase activity	b4014,b2976
GO:0030267	3.3499324773293e-05	2	3	molecular_function: glyoxylate reductase (NADP) activity	b3553,b1033
GO:0016618	3.3499324773293e-05	2	3	molecular_function: hydroxypyruvate reductase activity	b3553,b1033
GO:0042128	2.939294526468759e-20	14	20	biological_process: nitrate assimilation	b1466,b3365,b3367,b4070,b1227,b1223,b1467,b1224,b1226,b1225,b3366,b2206,b1465,b1468
GO:0017004	2.739499993284886e-13	9	13	biological_process: cytochrome complex assembly	b2201,b4074,b2198,b2194,b2199,b2200,b2196,b2195,b2197
GO:0055114	6.538679798651833e-13	28	448	biological_process: oxidation-reduction process	b2202,b4072,b4070,b1225,b2206,b1465,b2436,b1468,b2710,b2540,b2538,b2205,b1467,b2195,b2203,b3867,b2711,b4071,b1227,b2541,b3368,b1224,b3366,b2204,b2539,b3365,b2194,b2542
GO:0008940	1.1090249738118812e-11	7	7	molecular_function: nitrate reductase activity	b1227,b1467,b1224,b1225,b2206,b1465,b1468
GO:0019645	4.856528510467044e-11	8	15	biological_process: anaerobic electron transport chain	b4071,b4072,b4070,b1227,b1467,b1465,b4073,b1468
GO:0015886	6.304254705022729e-11	7	9	biological_process: heme transport	b2201,b4074,b2198,b2199,b2200,b2196,b2197
GO:0009061	8.553279712650761e-11	11	49	biological_process: anaerobic respiration	b2202,b3365,b1227,b1467,b1224,b1225,b3366,b2206,b1465,b2203,b1468
GO:0020037	1.8826420591856801e-10	10	39	molecular_function: heme binding	b2202,b4071,b3365,b4070,b4074,b1227,b2199,b2196,b1465,b2197
GO:0009325	3.5517011091475577e-10	6	6	cellular_component: nitrate reductase complex	b1227,b1467,b1224,b1225,b1465,b1468
GO:0016491	7.822888185575643e-10	22	356	molecular_function: oxidoreductase activity	b4072,b4070,b1225,b2206,b1465,b2436,b1468,b2710,b2538,b1467,b2195,b3867,b2711,b4071,b1227,b2541,b3368,b1224,b3366,b2539,b3365,b2542
GO:0006779	2.1116018115282162e-09	7	15	biological_process: porphyrin-containing compound biosynthetic process	b3804,b3368,b2436,b3997,b3805,b3802,b3867
GO:0051536	8.994569657482484e-08	13	146	molecular_function: iron-sulfur cluster binding	b2540,b2538,b3365,b4072,b2205,b2208,b3867,b1467,b1224,b1225,b2206,b2204,b1468
GO:0006782	2.045576429430242e-07	5	9	biological_process: protoporphyrinogen IX biosynthetic process	b3867,b3804,b3997,b3805,b2436
GO:0042126	3.590038812822895e-07	4	4	biological_process: nitrate metabolic process	b1467,b1224,b1225,b1468
GO:0018378	3.590038812822895e-07	4	4	biological_process: cytochrome c-heme linkage via heme-L-cysteine	b4074,b2194,b4075,b4076
GO:0008695	3.590038812822895e-07	4	4	molecular_function: 3-phenylpropionate dioxygenase activity	b2540,b2539,b2538,b2542
GO:0046872	4.253118384398612e-07	26	692	molecular_function: metal ion binding	b2202,b3996,b4072,b4070,b1225,b2206,b1465,b4075,b2436,b1468,b2710,b2540,b2538,b2205,b2208,b1467,b2197,b2203,b3867,b4071,b1227,b1224,b2204,b3365,b2194,b3998
GO:0019380	5.461678568352633e-07	5	11	biological_process: 3-phenylpropionate catabolic process	b2540,b2539,b2538,b2541,b2542
GO:0051539	6.058046494233446e-07	11	117	molecular_function: 4 iron, 4 sulfur cluster binding	b3365,b2205,b4072,b2208,b3867,b1467,b1224,b1225,b2206,b2204,b1468
GO:0019439	1.2326526136272599e-06	5	13	biological_process: aromatic compound catabolic process	b2540,b2539,b2538,b2541,b2542
GO:0015232	1.779977784113882e-06	4	6	molecular_function: heme transporter activity	b4074,b2200,b2196,b2199
GO:0009055	2.295709112964783e-06	9	83	molecular_function: electron transfer activity	b2202,b2710,b4071,b1227,b1467,b1224,b1225,b2206,b1465
GO:0044799	1.1524005485395338e-05	3	3	cellular_component: NarGHI complex	b1227,b1225,b1224
GO:0042279	1.1524005485395338e-05	3	3	molecular_function: nitrite reductase (cytochrome, ammonia-forming) activity	b4070,b4071,b4072
GO:0031235	5.230008861955557e-05	3	5	cellular_component: intrinsic component of the cytoplasmic side of the plasma membrane	b2198,b1224,b1225
GO:0031237	0.00014068485215376785	3	7	cellular_component: intrinsic component of periplasmic side of plasma membrane	b2197,b2194,b2195
GO:0006783	0.0002079249655453123	3	8	biological_process: heme biosynthetic process	b3805,b2436,b3997
GO:0051131	0.000382229840385541	2	2	biological_process: chaperone-mediated protein complex assembly	b1226,b1466
GO:0018063	0.000382229840385541	2	2	biological_process: cytochrome c-heme linkage	b2197,b2196
GO:0016966	0.000382229840385541	2	2	molecular_function: nitric oxide reductase activity	b4070,b2710
GO:0009344	0.000382229840385541	2	2	cellular_component: nitrite reductase complex [NAD(P)H]	b3365,b3366
GO:0008942	0.000382229840385541	2	2	molecular_function: nitrite reductase [NAD(P)H] activity	b3365,b3366
GO:0006780	0.000382229840385541	2	2	biological_process: uroporphyrinogen III biosynthetic process	b3804,b3997
GO:0019700	5.883866557547936e-20	8	8	biological_process: organic phosphonate catabolic process	b4095,b4099,b4096,b4092,b4098,b4101,b4097,b4100
GO:1904176	1.7291501734435382e-12	5	5	cellular_component: carbon phosphorus lyase complex	b4099,b4101,b4098,b4097,b4100
GO:0019634	3.8828887783923057e-10	4	4	biological_process: organic phosphonate metabolic process	b4100,b4101,b4099,b4094
GO:0061694	3.8828887783923057e-10	4	4	cellular_component: alpha-D-ribose 1-methylphosphonate 5-triphosphate synthase complex	b4096,b4101,b4100,b4099
GO:0061693	3.8828887783923057e-10	4	4	molecular_function: alpha-D-ribose 1-methylphosphonate 5-triphosphate synthase activity	b4096,b4101,b4100,b4099
GO:0015716	5.946125309459329e-05	2	4	biological_process: organic phosphonate transport	b4102,b4101
GO:0009401	5.831326320688121e-11	9	57	biological_process: phosphoenolpyruvate-dependent sugar phosphotransferase system	b4304,b4565,b4193,b2095,b4195,b2094,b2093,b4302,b4194
GO:0019402	1.9585000061122374e-10	5	5	biological_process: galactitol metabolic process	b2095,b2094,b2091,b2093,b2096
GO:0005975	2.042823073521712e-08	10	154	biological_process: carbohydrate metabolic process	b4198,b3580,b4301,b3582,b2095,b4196,b4197,b3581,b3583,b2096
GO:0019854	3.5759848976869805e-08	4	5	biological_process: L-ascorbic acid catabolic process	b4196,b4198,b4197,b3581
GO:0019852	1.0869023577739906e-06	3	3	biological_process: L-ascorbic acid metabolic process	b3582,b4198,b4197
GO:0019404	1.0869023577739906e-06	3	3	biological_process: galactitol catabolic process	b2091,b2096,b2095
GO:0015796	1.0869023577739906e-06	3	3	biological_process: galactitol transport	b2094,b4304,b2093
GO:0015882	1.0869023577739906e-06	3	3	biological_process: L-ascorbic acid transmembrane transport	b4195,b4193,b4194
GO:0090585	1.0869023577739906e-06	3	3	molecular_function: protein-phosphocysteine-L-ascorbate-phosphotransferase system transporter activity	b4195,b4193,b4194
GO:0008643	3.3701984251282997e-06	7	104	biological_process: carbohydrate transport	b4304,b4565,b4193,b2094,b2093,b4302,b3579
GO:0019324	4.9888549791249925e-06	3	5	biological_process: L-lyxose metabolic process	b3582,b3583,b3580
GO:0034219	6.971499703831182e-06	5	42	biological_process: carbohydrate transmembrane transport	b4565,b3577,b3578,b2094,b2093
GO:0019323	2.859883950123669e-05	3	9	biological_process: pentose catabolic process	b3583,b4198,b4301
GO:0090584	8.094289287184311e-05	2	2	molecular_function: protein-phosphocysteine-galactitol-phosphotransferase system transporter activity	b2094,b2093
GO:0033982	8.094289287184311e-05	2	2	molecular_function: 3-dehydro-L-gulonate-6-phosphate decarboxylase activity	b4196,b3581
GO:0034015	8.094289287184311e-05	2	2	molecular_function: L-ribulose-5-phosphate 3-epimerase activity	b3582,b4197
GO:0016832	0.00010535884190222639	3	14	molecular_function: aldehyde-lyase activity	b3583,b4198,b2096
GO:0008742	0.00018139534668979633	2	3	molecular_function: L-ribulose-phosphate 4-epimerase activity	b3583,b4198
GO:0004590	0.00018139534668979633	2	3	molecular_function: orotidine-5'-phosphate decarboxylase activity	b4196,b3581
GO:2001059	0.000321195202251006	2	4	biological_process: D-tagatose 6-phosphate catabolic process	b2096,b2095
GO:0009401	1.117848643997009e-12	8	57	biological_process: phosphoenolpyruvate-dependent sugar phosphotransferase system	b4240,b2416,b2415,b2715,b1621,b2429,b2417,b1101
GO:0008643	1.3133498910347696e-10	8	104	biological_process: carbohydrate transport	b4240,b2416,b2415,b2715,b1621,b2429,b2417,b1101
GO:0090563	2.9635522180978094e-09	5	20	molecular_function: protein-phosphocysteine-sugar phosphotransferase activity	b4240,b2715,b1621,b2429,b1101
GO:0016301	5.2148257663628755e-09	8	166	molecular_function: kinase activity	b4240,b2296,b2416,b2715,b1621,b2429,b2417,b1101
GO:0016310	6.000866851375396e-09	8	169	biological_process: phosphorylation	b4240,b2296,b2416,b2715,b1621,b2429,b2417,b1101
GO:0008982	2.2163232852333063e-08	5	30	molecular_function: protein-N(PI)-phosphohistidine-sugar phosphotransferase activity	b4240,b2715,b1621,b2429,b1101
GO:0016740	5.539158430144222e-06	9	576	molecular_function: transferase activity	b4240,b2296,b2416,b2715,b2297,b1621,b2429,b2417,b1101
GO:0006085	1.7888061951676125e-05	2	2	biological_process: acetyl-CoA biosynthetic process	b2297,b2296
GO:0090564	1.7888061951676125e-05	2	2	molecular_function: protein-phosphocysteine-glucose phosphotransferase system transporter activity	b1621,b1101
GO:0019413	1.7888061951676125e-05	2	2	biological_process: acetate biosynthetic process	b2297,b2296
GO:0006083	4.017823766398276e-05	2	3	biological_process: acetate metabolic process	b2297,b2296
GO:0015771	4.017823766398276e-05	2	3	biological_process: trehalose transport	b2715,b4240
GO:0090589	4.017823766398276e-05	2	3	molecular_function: protein-phosphocysteine-trehalose phosphotransferase system transporter activity	b2715,b4240
GO:1904659	0.00015987707768027267	2	6	biological_process: glucose transmembrane transport	b1621,b1101
GO:0034219	0.0002683543955575768	3	42	biological_process: carbohydrate transmembrane transport	b2715,b4240,b2429
GO:0009401	1.117848643997009e-12	8	57	biological_process: phosphoenolpyruvate-dependent sugar phosphotransferase system	b2417,b1101,b4240,b2715,b2429,b2416,b2415,b1621
GO:0008643	1.3133498910347696e-10	8	104	biological_process: carbohydrate transport	b2417,b1101,b4240,b2715,b2429,b2416,b2415,b1621
GO:0090563	2.9635522180978094e-09	5	20	molecular_function: protein-phosphocysteine-sugar phosphotransferase activity	b1101,b4240,b2715,b2429,b1621
GO:0016301	5.2148257663628755e-09	8	166	molecular_function: kinase activity	b2417,b1101,b4240,b2296,b2715,b2429,b2416,b1621
GO:0016310	6.000866851375396e-09	8	169	biological_process: phosphorylation	b2417,b1101,b4240,b2296,b2715,b2429,b2416,b1621
GO:0008982	2.2163232852333063e-08	5	30	molecular_function: protein-N(PI)-phosphohistidine-sugar phosphotransferase activity	b1101,b4240,b2715,b2429,b1621
GO:0016740	5.539158430144222e-06	9	576	molecular_function: transferase activity	b2417,b1101,b4240,b2296,b2715,b2297,b2429,b2416,b1621
GO:0006085	1.7888061951676125e-05	2	2	biological_process: acetyl-CoA biosynthetic process	b2296,b2297
GO:0090564	1.7888061951676125e-05	2	2	molecular_function: protein-phosphocysteine-glucose phosphotransferase system transporter activity	b1101,b1621
GO:0019413	1.7888061951676125e-05	2	2	biological_process: acetate biosynthetic process	b2296,b2297
GO:0006083	4.017823766398276e-05	2	3	biological_process: acetate metabolic process	b2296,b2297
GO:0015771	4.017823766398276e-05	2	3	biological_process: trehalose transport	b2715,b4240
GO:0090589	4.017823766398276e-05	2	3	molecular_function: protein-phosphocysteine-trehalose phosphotransferase system transporter activity	b2715,b4240
GO:1904659	0.00015987707768027267	2	6	biological_process: glucose transmembrane transport	b1101,b1621
GO:0034219	0.0002683543955575768	3	42	biological_process: carbohydrate transmembrane transport	b2715,b4240,b2429
